ISO-10303-21;
HEADER;
/* Generated by software containing ST-Developer
 * from STEP Tools, Inc. (www.steptools.com) 
 */

FILE_DESCRIPTION(
/* description */ (''),
/* implementation_level */ '2;1');

FILE_NAME(
/* name */ 'Upper support_v6.step',
/* time_stamp */ '2023-06-02T10:59:56+02:00',
/* author */ (''),
/* organization */ (''),
/* preprocessor_version */ 'ST-DEVELOPER v19.2',
/* originating_system */ 'Autodesk Translation Framework v12.6.0.85',
/* authorisation */ '');

FILE_SCHEMA (('AUTOMOTIVE_DESIGN { 1 0 10303 214 3 1 1 }'));
ENDSEC;

DATA;
#10=MECHANICAL_DESIGN_GEOMETRIC_PRESENTATION_REPRESENTATION('',(#13),#2072);
#11=SHAPE_REPRESENTATION_RELATIONSHIP('SRR','None',#2078,#12);
#12=ADVANCED_BREP_SHAPE_REPRESENTATION('',(#14),#2071);
#13=STYLED_ITEM('',(#2087),#14);
#14=MANIFOLD_SOLID_BREP('Body1',#1172);
#15=B_SPLINE_CURVE_WITH_KNOTS('',3,(#1720,#1721,#1722,#1723,#1724,#1725,
#1726,#1727,#1728,#1729,#1730,#1731,#1732,#1733,#1734,#1735,#1736,#1737,
#1738,#1739,#1740),.UNSPECIFIED.,.F.,.F.,(4,2,2,2,2,3,2,2,2,4),(3.83439616018772,
4.02997840769892,4.33915068304538,4.65528046850778,4.84648472164231,5.04490567377223,
5.35272114093537,5.65920292400986,5.9716422966823,6.25637971021902),
 .UNSPECIFIED.);
#16=B_SPLINE_CURVE_WITH_KNOTS('',3,(#1858,#1859,#1860,#1861,#1862,#1863,
#1864,#1865,#1866,#1867,#1868,#1869),.UNSPECIFIED.,.F.,.F.,(4,2,2,2,2,4),
(0.0735402341083311,0.0748049538385772,0.0997399384514363,0.122226820325628,
0.14471370219982,0.161697738459415),.UNSPECIFIED.);
#17=B_SPLINE_CURVE_WITH_KNOTS('',3,(#2028,#2029,#2030,#2031,#2032,#2033,
#2034,#2035),.UNSPECIFIED.,.F.,.F.,(4,2,2,4),(0.607493650717153,0.609486151073708,
0.634623233629188,0.659760289514785),.UNSPECIFIED.);
#18=LINE('',#1702,#108);
#19=LINE('',#1712,#109);
#20=LINE('',#1746,#110);
#21=LINE('',#1750,#111);
#22=LINE('',#1754,#112);
#23=LINE('',#1756,#113);
#24=LINE('',#1758,#114);
#25=LINE('',#1762,#115);
#26=LINE('',#1766,#116);
#27=LINE('',#1768,#117);
#28=LINE('',#1772,#118);
#29=LINE('',#1776,#119);
#30=LINE('',#1780,#120);
#31=LINE('',#1783,#121);
#32=LINE('',#1786,#122);
#33=LINE('',#1787,#123);
#34=LINE('',#1790,#124);
#35=LINE('',#1791,#125);
#36=LINE('',#1796,#126);
#37=LINE('',#1806,#127);
#38=LINE('',#1811,#128);
#39=LINE('',#1815,#129);
#40=LINE('',#1821,#130);
#41=LINE('',#1825,#131);
#42=LINE('',#1827,#132);
#43=LINE('',#1829,#133);
#44=LINE('',#1833,#134);
#45=LINE('',#1837,#135);
#46=LINE('',#1839,#136);
#47=LINE('',#1841,#137);
#48=LINE('',#1844,#138);
#49=LINE('',#1846,#139);
#50=LINE('',#1848,#140);
#51=LINE('',#1850,#141);
#52=LINE('',#1855,#142);
#53=LINE('',#1857,#143);
#54=LINE('',#1873,#144);
#55=LINE('',#1876,#145);
#56=LINE('',#1877,#146);
#57=LINE('',#1880,#147);
#58=LINE('',#1882,#148);
#59=LINE('',#1884,#149);
#60=LINE('',#1886,#150);
#61=LINE('',#1890,#151);
#62=LINE('',#1892,#152);
#63=LINE('',#1893,#153);
#64=LINE('',#1896,#154);
#65=LINE('',#1898,#155);
#66=LINE('',#1902,#156);
#67=LINE('',#1907,#157);
#68=LINE('',#1911,#158);
#69=LINE('',#1914,#159);
#70=LINE('',#1918,#160);
#71=LINE('',#1924,#161);
#72=LINE('',#1931,#162);
#73=LINE('',#1938,#163);
#74=LINE('',#1945,#164);
#75=LINE('',#1952,#165);
#76=LINE('',#1959,#166);
#77=LINE('',#1966,#167);
#78=LINE('',#1971,#168);
#79=LINE('',#1974,#169);
#80=LINE('',#1981,#170);
#81=LINE('',#1985,#171);
#82=LINE('',#1987,#172);
#83=LINE('',#1988,#173);
#84=LINE('',#1993,#174);
#85=LINE('',#1997,#175);
#86=LINE('',#2001,#176);
#87=LINE('',#2003,#177);
#88=LINE('',#2008,#178);
#89=LINE('',#2009,#179);
#90=LINE('',#2013,#180);
#91=LINE('',#2017,#181);
#92=LINE('',#2019,#182);
#93=LINE('',#2021,#183);
#94=LINE('',#2024,#184);
#95=LINE('',#2026,#185);
#96=LINE('',#2038,#186);
#97=LINE('',#2040,#187);
#98=LINE('',#2042,#188);
#99=LINE('',#2047,#189);
#100=LINE('',#2049,#190);
#101=LINE('',#2056,#191);
#102=LINE('',#2059,#192);
#103=LINE('',#2061,#193);
#104=LINE('',#2062,#194);
#105=LINE('',#2063,#195);
#106=LINE('',#2065,#196);
#107=LINE('',#2067,#197);
#108=VECTOR('',#1334,4.5);
#109=VECTOR('',#1347,6.49999999999999);
#110=VECTOR('',#1362,10.);
#111=VECTOR('',#1365,10.);
#112=VECTOR('',#1368,10.);
#113=VECTOR('',#1369,10.);
#114=VECTOR('',#1370,10.);
#115=VECTOR('',#1373,10.);
#116=VECTOR('',#1376,10.);
#117=VECTOR('',#1377,10.);
#118=VECTOR('',#1380,10.);
#119=VECTOR('',#1383,10.);
#120=VECTOR('',#1388,10.);
#121=VECTOR('',#1391,10.);
#122=VECTOR('',#1394,10.);
#123=VECTOR('',#1395,10.);
#124=VECTOR('',#1398,10.);
#125=VECTOR('',#1399,10.);
#126=VECTOR('',#1404,2.);
#127=VECTOR('',#1419,10.);
#128=VECTOR('',#1424,10.);
#129=VECTOR('',#1427,10.);
#130=VECTOR('',#1432,10.);
#131=VECTOR('',#1435,10.);
#132=VECTOR('',#1436,10.);
#133=VECTOR('',#1437,10.);
#134=VECTOR('',#1440,10.);
#135=VECTOR('',#1443,10.);
#136=VECTOR('',#1444,10.);
#137=VECTOR('',#1445,10.);
#138=VECTOR('',#1448,10.);
#139=VECTOR('',#1451,10.);
#140=VECTOR('',#1454,10.);
#141=VECTOR('',#1457,10.);
#142=VECTOR('',#1462,10.);
#143=VECTOR('',#1463,10.);
#144=VECTOR('',#1468,10.);
#145=VECTOR('',#1471,10.);
#146=VECTOR('',#1472,10.);
#147=VECTOR('',#1475,10.);
#148=VECTOR('',#1476,10.);
#149=VECTOR('',#1477,10.);
#150=VECTOR('',#1478,10.);
#151=VECTOR('',#1483,10.);
#152=VECTOR('',#1484,10.);
#153=VECTOR('',#1485,10.);
#154=VECTOR('',#1488,10.);
#155=VECTOR('',#1489,10.);
#156=VECTOR('',#1494,10.);
#157=VECTOR('',#1499,10.);
#158=VECTOR('',#1502,10.);
#159=VECTOR('',#1507,10.);
#160=VECTOR('',#1510,10.);
#161=VECTOR('',#1517,0.600000000000014);
#162=VECTOR('',#1526,0.600000000000014);
#163=VECTOR('',#1535,0.600000000000014);
#164=VECTOR('',#1544,0.600000000000014);
#165=VECTOR('',#1553,0.600000000000014);
#166=VECTOR('',#1562,0.600000000000014);
#167=VECTOR('',#1571,10.);
#168=VECTOR('',#1576,10.);
#169=VECTOR('',#1579,10.);
#170=VECTOR('',#1586,10.);
#171=VECTOR('',#1591,10.);
#172=VECTOR('',#1592,10.);
#173=VECTOR('',#1593,10.);
#174=VECTOR('',#1598,10.);
#175=VECTOR('',#1603,10.);
#176=VECTOR('',#1606,10.);
#177=VECTOR('',#1609,10.);
#178=VECTOR('',#1614,10.);
#179=VECTOR('',#1615,10.);
#180=VECTOR('',#1620,10.);
#181=VECTOR('',#1625,10.);
#182=VECTOR('',#1628,10.);
#183=VECTOR('',#1631,10.);
#184=VECTOR('',#1636,10.);
#185=VECTOR('',#1639,10.);
#186=VECTOR('',#1646,10.);
#187=VECTOR('',#1649,10.);
#188=VECTOR('',#1652,10.);
#189=VECTOR('',#1659,2.1575);
#190=VECTOR('',#1662,10.);
#191=VECTOR('',#1669,10.);
#192=VECTOR('',#1672,10.);
#193=VECTOR('',#1675,3.45);
#194=VECTOR('',#1676,10.);
#195=VECTOR('',#1677,10.);
#196=VECTOR('',#1680,10.);
#197=VECTOR('',#1683,10.);
#198=CYLINDRICAL_SURFACE('',#1181,4.7);
#199=CYLINDRICAL_SURFACE('',#1188,6.49999999999999);
#200=CYLINDRICAL_SURFACE('',#1203,8.);
#201=CYLINDRICAL_SURFACE('',#1207,2.);
#202=CYLINDRICAL_SURFACE('',#1214,2.);
#203=CYLINDRICAL_SURFACE('',#1225,2.);
#204=CYLINDRICAL_SURFACE('',#1228,1.);
#205=CYLINDRICAL_SURFACE('',#1230,1.);
#206=CYLINDRICAL_SURFACE('',#1235,1.);
#207=CYLINDRICAL_SURFACE('',#1246,0.600000000000014);
#208=CYLINDRICAL_SURFACE('',#1250,0.600000000000014);
#209=CYLINDRICAL_SURFACE('',#1254,0.600000000000014);
#210=CYLINDRICAL_SURFACE('',#1258,0.600000000000014);
#211=CYLINDRICAL_SURFACE('',#1262,0.600000000000014);
#212=CYLINDRICAL_SURFACE('',#1266,0.600000000000014);
#213=CYLINDRICAL_SURFACE('',#1276,1.);
#214=CYLINDRICAL_SURFACE('',#1280,1.);
#215=CYLINDRICAL_SURFACE('',#1288,1.);
#216=CYLINDRICAL_SURFACE('',#1290,1.);
#217=CYLINDRICAL_SURFACE('',#1292,1.);
#218=CYLINDRICAL_SURFACE('',#1294,1.);
#219=CYLINDRICAL_SURFACE('',#1295,1.);
#220=CYLINDRICAL_SURFACE('',#1297,1.);
#221=CYLINDRICAL_SURFACE('',#1298,1.);
#222=CYLINDRICAL_SURFACE('',#1299,1.);
#223=CYLINDRICAL_SURFACE('',#1300,2.5);
#224=CYLINDRICAL_SURFACE('',#1302,1.);
#225=CYLINDRICAL_SURFACE('',#1303,1.9575);
#226=CYLINDRICAL_SURFACE('',#1310,3.6);
#227=CYLINDRICAL_SURFACE('',#1312,2.1);
#228=FACE_BOUND('',#338,.T.);
#229=FACE_BOUND('',#350,.T.);
#230=FACE_BOUND('',#353,.T.);
#231=FACE_BOUND('',#378,.T.);
#232=FACE_BOUND('',#383,.T.);
#233=FACE_BOUND('',#401,.T.);
#234=FACE_BOUND('',#403,.T.);
#235=FACE_BOUND('',#404,.T.);
#236=FACE_BOUND('',#405,.T.);
#237=FACE_BOUND('',#406,.T.);
#238=FACE_BOUND('',#407,.T.);
#239=FACE_BOUND('',#408,.T.);
#240=PLANE('',#1179);
#241=PLANE('',#1194);
#242=PLANE('',#1205);
#243=PLANE('',#1206);
#244=PLANE('',#1213);
#245=PLANE('',#1216);
#246=PLANE('',#1226);
#247=PLANE('',#1227);
#248=PLANE('',#1232);
#249=PLANE('',#1233);
#250=PLANE('',#1236);
#251=PLANE('',#1238);
#252=PLANE('',#1243);
#253=PLANE('',#1249);
#254=PLANE('',#1253);
#255=PLANE('',#1257);
#256=PLANE('',#1261);
#257=PLANE('',#1265);
#258=PLANE('',#1269);
#259=PLANE('',#1270);
#260=PLANE('',#1279);
#261=PLANE('',#1283);
#262=PLANE('',#1287);
#263=PLANE('',#1293);
#264=PLANE('',#1296);
#265=PLANE('',#1301);
#266=PLANE('',#1305);
#267=PLANE('',#1306);
#268=PLANE('',#1307);
#269=PLANE('',#1311);
#270=PLANE('',#1313);
#271=FACE_OUTER_BOUND('',#336,.T.);
#272=FACE_OUTER_BOUND('',#337,.T.);
#273=FACE_OUTER_BOUND('',#339,.T.);
#274=FACE_OUTER_BOUND('',#340,.T.);
#275=FACE_OUTER_BOUND('',#341,.T.);
#276=FACE_OUTER_BOUND('',#342,.T.);
#277=FACE_OUTER_BOUND('',#343,.T.);
#278=FACE_OUTER_BOUND('',#344,.T.);
#279=FACE_OUTER_BOUND('',#345,.T.);
#280=FACE_OUTER_BOUND('',#346,.T.);
#281=FACE_OUTER_BOUND('',#347,.T.);
#282=FACE_OUTER_BOUND('',#348,.T.);
#283=FACE_OUTER_BOUND('',#349,.T.);
#284=FACE_OUTER_BOUND('',#351,.T.);
#285=FACE_OUTER_BOUND('',#352,.T.);
#286=FACE_OUTER_BOUND('',#354,.T.);
#287=FACE_OUTER_BOUND('',#355,.T.);
#288=FACE_OUTER_BOUND('',#356,.T.);
#289=FACE_OUTER_BOUND('',#357,.T.);
#290=FACE_OUTER_BOUND('',#358,.T.);
#291=FACE_OUTER_BOUND('',#359,.T.);
#292=FACE_OUTER_BOUND('',#360,.T.);
#293=FACE_OUTER_BOUND('',#361,.T.);
#294=FACE_OUTER_BOUND('',#362,.T.);
#295=FACE_OUTER_BOUND('',#363,.T.);
#296=FACE_OUTER_BOUND('',#364,.T.);
#297=FACE_OUTER_BOUND('',#365,.T.);
#298=FACE_OUTER_BOUND('',#366,.T.);
#299=FACE_OUTER_BOUND('',#367,.T.);
#300=FACE_OUTER_BOUND('',#368,.T.);
#301=FACE_OUTER_BOUND('',#369,.T.);
#302=FACE_OUTER_BOUND('',#370,.T.);
#303=FACE_OUTER_BOUND('',#371,.T.);
#304=FACE_OUTER_BOUND('',#372,.T.);
#305=FACE_OUTER_BOUND('',#373,.T.);
#306=FACE_OUTER_BOUND('',#374,.T.);
#307=FACE_OUTER_BOUND('',#375,.T.);
#308=FACE_OUTER_BOUND('',#376,.T.);
#309=FACE_OUTER_BOUND('',#377,.T.);
#310=FACE_OUTER_BOUND('',#379,.T.);
#311=FACE_OUTER_BOUND('',#380,.T.);
#312=FACE_OUTER_BOUND('',#381,.T.);
#313=FACE_OUTER_BOUND('',#382,.T.);
#314=FACE_OUTER_BOUND('',#384,.T.);
#315=FACE_OUTER_BOUND('',#385,.T.);
#316=FACE_OUTER_BOUND('',#386,.T.);
#317=FACE_OUTER_BOUND('',#387,.T.);
#318=FACE_OUTER_BOUND('',#388,.T.);
#319=FACE_OUTER_BOUND('',#389,.T.);
#320=FACE_OUTER_BOUND('',#390,.T.);
#321=FACE_OUTER_BOUND('',#391,.T.);
#322=FACE_OUTER_BOUND('',#392,.T.);
#323=FACE_OUTER_BOUND('',#393,.T.);
#324=FACE_OUTER_BOUND('',#394,.T.);
#325=FACE_OUTER_BOUND('',#395,.T.);
#326=FACE_OUTER_BOUND('',#396,.T.);
#327=FACE_OUTER_BOUND('',#397,.T.);
#328=FACE_OUTER_BOUND('',#398,.T.);
#329=FACE_OUTER_BOUND('',#399,.T.);
#330=FACE_OUTER_BOUND('',#400,.T.);
#331=FACE_OUTER_BOUND('',#402,.T.);
#332=FACE_OUTER_BOUND('',#409,.T.);
#333=FACE_OUTER_BOUND('',#410,.T.);
#334=FACE_OUTER_BOUND('',#411,.T.);
#335=FACE_OUTER_BOUND('',#412,.T.);
#336=EDGE_LOOP('',(#767,#768,#769,#770,#771));
#337=EDGE_LOOP('',(#772));
#338=EDGE_LOOP('',(#773));
#339=EDGE_LOOP('',(#774,#775,#776,#777,#778,#779));
#340=EDGE_LOOP('',(#780,#781,#782,#783,#784));
#341=EDGE_LOOP('',(#785,#786,#787,#788,#789));
#342=EDGE_LOOP('',(#790,#791,#792,#793,#794,#795));
#343=EDGE_LOOP('',(#796,#797,#798,#799,#800,#801,#802,#803,#804,#805,#806,
#807,#808,#809,#810,#811,#812,#813,#814,#815));
#344=EDGE_LOOP('',(#816,#817,#818,#819,#820,#821));
#345=EDGE_LOOP('',(#822,#823,#824,#825));
#346=EDGE_LOOP('',(#826,#827,#828,#829));
#347=EDGE_LOOP('',(#830,#831,#832,#833));
#348=EDGE_LOOP('',(#834,#835,#836,#837,#838));
#349=EDGE_LOOP('',(#839));
#350=EDGE_LOOP('',(#840));
#351=EDGE_LOOP('',(#841,#842,#843,#844));
#352=EDGE_LOOP('',(#845,#846,#847,#848,#849,#850,#851,#852,#853,#854,#855,
#856,#857,#858,#859,#860,#861,#862,#863,#864,#865,#866,#867));
#353=EDGE_LOOP('',(#868));
#354=EDGE_LOOP('',(#869,#870,#871,#872));
#355=EDGE_LOOP('',(#873,#874,#875,#876));
#356=EDGE_LOOP('',(#877,#878,#879,#880));
#357=EDGE_LOOP('',(#881,#882,#883,#884,#885));
#358=EDGE_LOOP('',(#886,#887,#888,#889));
#359=EDGE_LOOP('',(#890,#891,#892,#893));
#360=EDGE_LOOP('',(#894,#895,#896,#897,#898,#899,#900,#901));
#361=EDGE_LOOP('',(#902,#903,#904,#905,#906,#907));
#362=EDGE_LOOP('',(#908,#909,#910,#911));
#363=EDGE_LOOP('',(#912,#913,#914,#915,#916,#917,#918,#919,#920,#921,#922));
#364=EDGE_LOOP('',(#923,#924,#925,#926,#927,#928,#929));
#365=EDGE_LOOP('',(#930,#931,#932,#933));
#366=EDGE_LOOP('',(#934));
#367=EDGE_LOOP('',(#935,#936,#937,#938));
#368=EDGE_LOOP('',(#939));
#369=EDGE_LOOP('',(#940,#941,#942,#943));
#370=EDGE_LOOP('',(#944));
#371=EDGE_LOOP('',(#945,#946,#947,#948));
#372=EDGE_LOOP('',(#949));
#373=EDGE_LOOP('',(#950,#951,#952,#953));
#374=EDGE_LOOP('',(#954));
#375=EDGE_LOOP('',(#955,#956,#957,#958));
#376=EDGE_LOOP('',(#959));
#377=EDGE_LOOP('',(#960,#961,#962,#963,#964,#965,#966,#967,#968));
#378=EDGE_LOOP('',(#969));
#379=EDGE_LOOP('',(#970,#971,#972,#973));
#380=EDGE_LOOP('',(#974,#975,#976,#977));
#381=EDGE_LOOP('',(#978,#979,#980,#981));
#382=EDGE_LOOP('',(#982,#983,#984,#985,#986,#987,#988,#989,#990,#991));
#383=EDGE_LOOP('',(#992));
#384=EDGE_LOOP('',(#993,#994,#995,#996));
#385=EDGE_LOOP('',(#997,#998,#999,#1000));
#386=EDGE_LOOP('',(#1001,#1002,#1003,#1004));
#387=EDGE_LOOP('',(#1005,#1006,#1007,#1008));
#388=EDGE_LOOP('',(#1009,#1010,#1011,#1012));
#389=EDGE_LOOP('',(#1013,#1014,#1015,#1016));
#390=EDGE_LOOP('',(#1017,#1018,#1019,#1020,#1021));
#391=EDGE_LOOP('',(#1022,#1023,#1024,#1025));
#392=EDGE_LOOP('',(#1026,#1027,#1028,#1029,#1030));
#393=EDGE_LOOP('',(#1031,#1032,#1033,#1034));
#394=EDGE_LOOP('',(#1035,#1036,#1037,#1038));
#395=EDGE_LOOP('',(#1039,#1040,#1041,#1042));
#396=EDGE_LOOP('',(#1043,#1044,#1045,#1046));
#397=EDGE_LOOP('',(#1047,#1048,#1049,#1050,#1051));
#398=EDGE_LOOP('',(#1052,#1053,#1054,#1055));
#399=EDGE_LOOP('',(#1056,#1057,#1058,#1059));
#400=EDGE_LOOP('',(#1060,#1061,#1062,#1063,#1064,#1065,#1066,#1067,#1068,
#1069));
#401=EDGE_LOOP('',(#1070));
#402=EDGE_LOOP('',(#1071,#1072,#1073,#1074));
#403=EDGE_LOOP('',(#1075));
#404=EDGE_LOOP('',(#1076));
#405=EDGE_LOOP('',(#1077));
#406=EDGE_LOOP('',(#1078));
#407=EDGE_LOOP('',(#1079));
#408=EDGE_LOOP('',(#1080));
#409=EDGE_LOOP('',(#1081,#1082,#1083,#1084,#1085,#1086,#1087,#1088));
#410=EDGE_LOOP('',(#1089,#1090,#1091,#1092,#1093));
#411=EDGE_LOOP('',(#1094,#1095,#1096,#1097));
#412=EDGE_LOOP('',(#1098,#1099,#1100,#1101,#1102));
#413=CIRCLE('',#1175,4.9);
#414=CIRCLE('',#1176,0.2);
#415=CIRCLE('',#1177,4.7);
#416=CIRCLE('',#1178,4.7);
#417=CIRCLE('',#1180,6.29999999999999);
#418=CIRCLE('',#1182,4.7);
#419=CIRCLE('',#1183,4.7);
#420=CIRCLE('',#1185,0.2);
#421=CIRCLE('',#1186,6.49999999999999);
#422=CIRCLE('',#1187,6.49999999999999);
#423=CIRCLE('',#1189,6.49999999999999);
#424=CIRCLE('',#1191,1.5);
#425=CIRCLE('',#1192,7.99999999999999);
#426=CIRCLE('',#1193,7.99999999999999);
#427=CIRCLE('',#1195,8.);
#428=CIRCLE('',#1196,2.);
#429=CIRCLE('',#1197,1.);
#430=CIRCLE('',#1198,2.5);
#431=CIRCLE('',#1199,1.);
#432=CIRCLE('',#1200,1.);
#433=CIRCLE('',#1201,2.);
#434=CIRCLE('',#1202,8.);
#435=CIRCLE('',#1204,8.);
#436=CIRCLE('',#1208,2.);
#437=CIRCLE('',#1209,2.);
#438=CIRCLE('',#1211,4.2);
#439=CIRCLE('',#1212,0.5);
#440=CIRCLE('',#1215,2.);
#441=CIRCLE('',#1217,2.);
#442=CIRCLE('',#1218,1.);
#443=CIRCLE('',#1219,1.);
#444=CIRCLE('',#1220,1.);
#445=CIRCLE('',#1221,1.);
#446=CIRCLE('',#1222,1.);
#447=CIRCLE('',#1223,2.5);
#448=CIRCLE('',#1224,1.);
#449=CIRCLE('',#1229,1.);
#450=CIRCLE('',#1231,1.);
#451=CIRCLE('',#1234,1.);
#452=CIRCLE('',#1237,2.1);
#453=CIRCLE('',#1239,3.6);
#454=CIRCLE('',#1240,3.6);
#455=CIRCLE('',#1241,1.);
#456=CIRCLE('',#1242,1.);
#457=CIRCLE('',#1244,1.);
#458=CIRCLE('',#1245,1.);
#459=CIRCLE('',#1247,0.600000000000014);
#460=CIRCLE('',#1248,0.600000000000014);
#461=CIRCLE('',#1251,0.600000000000014);
#462=CIRCLE('',#1252,0.600000000000014);
#463=CIRCLE('',#1255,0.600000000000014);
#464=CIRCLE('',#1256,0.600000000000014);
#465=CIRCLE('',#1259,0.600000000000014);
#466=CIRCLE('',#1260,0.600000000000014);
#467=CIRCLE('',#1263,0.600000000000014);
#468=CIRCLE('',#1264,0.600000000000014);
#469=CIRCLE('',#1267,0.600000000000014);
#470=CIRCLE('',#1268,0.600000000000014);
#471=CIRCLE('',#1271,1.);
#472=CIRCLE('',#1272,1.);
#473=CIRCLE('',#1273,1.);
#474=CIRCLE('',#1274,1.);
#475=CIRCLE('',#1275,3.6);
#476=CIRCLE('',#1277,1.);
#477=CIRCLE('',#1278,1.);
#478=CIRCLE('',#1281,1.);
#479=CIRCLE('',#1282,1.);
#480=CIRCLE('',#1284,1.);
#481=CIRCLE('',#1285,1.);
#482=CIRCLE('',#1286,1.9575);
#483=CIRCLE('',#1289,1.);
#484=CIRCLE('',#1291,1.);
#485=CIRCLE('',#1304,1.9575);
#486=CIRCLE('',#1308,3.6);
#487=CIRCLE('',#1309,2.1);
#488=VERTEX_POINT('',#1688);
#489=VERTEX_POINT('',#1690);
#490=VERTEX_POINT('',#1692);
#491=VERTEX_POINT('',#1696);
#492=VERTEX_POINT('',#1699);
#493=VERTEX_POINT('',#1700);
#494=VERTEX_POINT('',#1705);
#495=VERTEX_POINT('',#1707);
#496=VERTEX_POINT('',#1711);
#497=VERTEX_POINT('',#1715);
#498=VERTEX_POINT('',#1717);
#499=VERTEX_POINT('',#1719);
#500=VERTEX_POINT('',#1743);
#501=VERTEX_POINT('',#1745);
#502=VERTEX_POINT('',#1747);
#503=VERTEX_POINT('',#1749);
#504=VERTEX_POINT('',#1751);
#505=VERTEX_POINT('',#1753);
#506=VERTEX_POINT('',#1755);
#507=VERTEX_POINT('',#1757);
#508=VERTEX_POINT('',#1759);
#509=VERTEX_POINT('',#1761);
#510=VERTEX_POINT('',#1763);
#511=VERTEX_POINT('',#1765);
#512=VERTEX_POINT('',#1767);
#513=VERTEX_POINT('',#1769);
#514=VERTEX_POINT('',#1771);
#515=VERTEX_POINT('',#1773);
#516=VERTEX_POINT('',#1775);
#517=VERTEX_POINT('',#1779);
#518=VERTEX_POINT('',#1781);
#519=VERTEX_POINT('',#1785);
#520=VERTEX_POINT('',#1789);
#521=VERTEX_POINT('',#1793);
#522=VERTEX_POINT('',#1795);
#523=VERTEX_POINT('',#1799);
#524=VERTEX_POINT('',#1804);
#525=VERTEX_POINT('',#1808);
#526=VERTEX_POINT('',#1810);
#527=VERTEX_POINT('',#1812);
#528=VERTEX_POINT('',#1814);
#529=VERTEX_POINT('',#1816);
#530=VERTEX_POINT('',#1818);
#531=VERTEX_POINT('',#1820);
#532=VERTEX_POINT('',#1822);
#533=VERTEX_POINT('',#1824);
#534=VERTEX_POINT('',#1826);
#535=VERTEX_POINT('',#1828);
#536=VERTEX_POINT('',#1830);
#537=VERTEX_POINT('',#1832);
#538=VERTEX_POINT('',#1834);
#539=VERTEX_POINT('',#1836);
#540=VERTEX_POINT('',#1838);
#541=VERTEX_POINT('',#1840);
#542=VERTEX_POINT('',#1842);
#543=VERTEX_POINT('',#1852);
#544=VERTEX_POINT('',#1853);
#545=VERTEX_POINT('',#1856);
#546=VERTEX_POINT('',#1871);
#547=VERTEX_POINT('',#1875);
#548=VERTEX_POINT('',#1879);
#549=VERTEX_POINT('',#1881);
#550=VERTEX_POINT('',#1883);
#551=VERTEX_POINT('',#1885);
#552=VERTEX_POINT('',#1889);
#553=VERTEX_POINT('',#1891);
#554=VERTEX_POINT('',#1895);
#555=VERTEX_POINT('',#1897);
#556=VERTEX_POINT('',#1901);
#557=VERTEX_POINT('',#1903);
#558=VERTEX_POINT('',#1905);
#559=VERTEX_POINT('',#1908);
#560=VERTEX_POINT('',#1910);
#561=VERTEX_POINT('',#1915);
#562=VERTEX_POINT('',#1917);
#563=VERTEX_POINT('',#1921);
#564=VERTEX_POINT('',#1923);
#565=VERTEX_POINT('',#1928);
#566=VERTEX_POINT('',#1930);
#567=VERTEX_POINT('',#1935);
#568=VERTEX_POINT('',#1937);
#569=VERTEX_POINT('',#1942);
#570=VERTEX_POINT('',#1944);
#571=VERTEX_POINT('',#1949);
#572=VERTEX_POINT('',#1951);
#573=VERTEX_POINT('',#1956);
#574=VERTEX_POINT('',#1958);
#575=VERTEX_POINT('',#1963);
#576=VERTEX_POINT('',#1965);
#577=VERTEX_POINT('',#1968);
#578=VERTEX_POINT('',#1970);
#579=VERTEX_POINT('',#1972);
#580=VERTEX_POINT('',#1975);
#581=VERTEX_POINT('',#1978);
#582=VERTEX_POINT('',#1980);
#583=VERTEX_POINT('',#1984);
#584=VERTEX_POINT('',#1986);
#585=VERTEX_POINT('',#1990);
#586=VERTEX_POINT('',#1992);
#587=VERTEX_POINT('',#1996);
#588=VERTEX_POINT('',#1998);
#589=VERTEX_POINT('',#2000);
#590=VERTEX_POINT('',#2004);
#591=VERTEX_POINT('',#2007);
#592=VERTEX_POINT('',#2011);
#593=VERTEX_POINT('',#2015);
#594=VERTEX_POINT('',#2045);
#595=VERTEX_POINT('',#2052);
#596=VERTEX_POINT('',#2053);
#597=VERTEX_POINT('',#2055);
#598=VERTEX_POINT('',#2057);
#599=EDGE_CURVE('',#488,#488,#413,.T.);
#600=EDGE_CURVE('',#488,#489,#414,.T.);
#601=EDGE_CURVE('',#489,#490,#415,.T.);
#602=EDGE_CURVE('',#490,#489,#416,.T.);
#603=EDGE_CURVE('',#491,#491,#417,.T.);
#604=EDGE_CURVE('',#492,#493,#418,.T.);
#605=EDGE_CURVE('',#492,#490,#18,.T.);
#606=EDGE_CURVE('',#493,#492,#419,.T.);
#607=EDGE_CURVE('',#491,#494,#420,.T.);
#608=EDGE_CURVE('',#494,#495,#421,.T.);
#609=EDGE_CURVE('',#495,#494,#422,.T.);
#610=EDGE_CURVE('',#495,#496,#19,.T.);
#611=EDGE_CURVE('',#496,#496,#423,.T.);
#612=EDGE_CURVE('',#496,#497,#424,.T.);
#613=EDGE_CURVE('',#497,#498,#425,.T.);
#614=EDGE_CURVE('',#499,#498,#15,.F.);
#615=EDGE_CURVE('',#499,#497,#426,.T.);
#616=EDGE_CURVE('',#500,#499,#427,.T.);
#617=EDGE_CURVE('',#501,#500,#20,.T.);
#618=EDGE_CURVE('',#502,#501,#428,.T.);
#619=EDGE_CURVE('',#502,#503,#21,.T.);
#620=EDGE_CURVE('',#504,#503,#429,.T.);
#621=EDGE_CURVE('',#504,#505,#22,.T.);
#622=EDGE_CURVE('',#506,#505,#23,.T.);
#623=EDGE_CURVE('',#506,#507,#24,.T.);
#624=EDGE_CURVE('',#508,#507,#430,.T.);
#625=EDGE_CURVE('',#508,#509,#25,.T.);
#626=EDGE_CURVE('',#510,#509,#431,.T.);
#627=EDGE_CURVE('',#511,#510,#26,.T.);
#628=EDGE_CURVE('',#511,#512,#27,.T.);
#629=EDGE_CURVE('',#513,#512,#432,.T.);
#630=EDGE_CURVE('',#513,#514,#28,.T.);
#631=EDGE_CURVE('',#515,#514,#433,.T.);
#632=EDGE_CURVE('',#515,#516,#29,.T.);
#633=EDGE_CURVE('',#498,#516,#434,.T.);
#634=EDGE_CURVE('',#516,#517,#30,.T.);
#635=EDGE_CURVE('',#517,#518,#435,.T.);
#636=EDGE_CURVE('',#518,#500,#31,.T.);
#637=EDGE_CURVE('',#519,#518,#32,.T.);
#638=EDGE_CURVE('',#501,#519,#33,.T.);
#639=EDGE_CURVE('',#520,#515,#34,.T.);
#640=EDGE_CURVE('',#520,#517,#35,.T.);
#641=EDGE_CURVE('',#521,#521,#436,.T.);
#642=EDGE_CURVE('',#521,#522,#36,.T.);
#643=EDGE_CURVE('',#522,#522,#437,.T.);
#644=EDGE_CURVE('',#523,#523,#438,.T.);
#645=EDGE_CURVE('',#523,#493,#439,.T.);
#646=EDGE_CURVE('',#519,#524,#440,.T.);
#647=EDGE_CURVE('',#524,#502,#37,.T.);
#648=EDGE_CURVE('',#525,#520,#441,.T.);
#649=EDGE_CURVE('',#526,#525,#38,.T.);
#650=EDGE_CURVE('',#527,#526,#442,.T.);
#651=EDGE_CURVE('',#528,#527,#39,.T.);
#652=EDGE_CURVE('',#529,#528,#443,.T.);
#653=EDGE_CURVE('',#530,#529,#444,.T.);
#654=EDGE_CURVE('',#530,#531,#40,.T.);
#655=EDGE_CURVE('',#532,#531,#445,.T.);
#656=EDGE_CURVE('',#533,#532,#41,.T.);
#657=EDGE_CURVE('',#534,#533,#42,.T.);
#658=EDGE_CURVE('',#534,#535,#43,.T.);
#659=EDGE_CURVE('',#536,#535,#446,.T.);
#660=EDGE_CURVE('',#537,#536,#44,.T.);
#661=EDGE_CURVE('',#538,#537,#447,.T.);
#662=EDGE_CURVE('',#538,#539,#45,.T.);
#663=EDGE_CURVE('',#540,#539,#46,.T.);
#664=EDGE_CURVE('',#540,#541,#47,.T.);
#665=EDGE_CURVE('',#542,#541,#448,.T.);
#666=EDGE_CURVE('',#524,#542,#48,.T.);
#667=EDGE_CURVE('',#514,#525,#49,.T.);
#668=EDGE_CURVE('',#503,#542,#50,.T.);
#669=EDGE_CURVE('',#526,#513,#51,.T.);
#670=EDGE_CURVE('',#543,#544,#449,.F.);
#671=EDGE_CURVE('',#543,#529,#52,.T.);
#672=EDGE_CURVE('',#528,#545,#53,.T.);
#673=EDGE_CURVE('',#544,#545,#16,.F.);
#674=EDGE_CURVE('',#543,#546,#450,.T.);
#675=EDGE_CURVE('',#546,#530,#54,.T.);
#676=EDGE_CURVE('',#546,#547,#55,.T.);
#677=EDGE_CURVE('',#531,#547,#56,.T.);
#678=EDGE_CURVE('',#544,#548,#57,.T.);
#679=EDGE_CURVE('',#548,#549,#58,.T.);
#680=EDGE_CURVE('',#550,#549,#59,.T.);
#681=EDGE_CURVE('',#550,#551,#60,.T.);
#682=EDGE_CURVE('',#547,#551,#451,.T.);
#683=EDGE_CURVE('',#552,#551,#61,.T.);
#684=EDGE_CURVE('',#552,#553,#62,.T.);
#685=EDGE_CURVE('',#532,#553,#63,.T.);
#686=EDGE_CURVE('',#554,#553,#64,.T.);
#687=EDGE_CURVE('',#552,#555,#65,.T.);
#688=EDGE_CURVE('',#555,#554,#452,.T.);
#689=EDGE_CURVE('',#553,#556,#66,.T.);
#690=EDGE_CURVE('',#556,#557,#453,.T.);
#691=EDGE_CURVE('',#557,#558,#454,.T.);
#692=EDGE_CURVE('',#558,#552,#67,.T.);
#693=EDGE_CURVE('',#559,#550,#455,.T.);
#694=EDGE_CURVE('',#560,#559,#68,.T.);
#695=EDGE_CURVE('',#533,#560,#456,.T.);
#696=EDGE_CURVE('',#512,#527,#69,.T.);
#697=EDGE_CURVE('',#561,#511,#457,.T.);
#698=EDGE_CURVE('',#561,#562,#70,.T.);
#699=EDGE_CURVE('',#545,#562,#458,.T.);
#700=EDGE_CURVE('',#563,#563,#459,.T.);
#701=EDGE_CURVE('',#563,#564,#71,.T.);
#702=EDGE_CURVE('',#564,#564,#460,.F.);
#703=EDGE_CURVE('',#565,#565,#461,.T.);
#704=EDGE_CURVE('',#565,#566,#72,.T.);
#705=EDGE_CURVE('',#566,#566,#462,.F.);
#706=EDGE_CURVE('',#567,#567,#463,.T.);
#707=EDGE_CURVE('',#567,#568,#73,.T.);
#708=EDGE_CURVE('',#568,#568,#464,.F.);
#709=EDGE_CURVE('',#569,#569,#465,.T.);
#710=EDGE_CURVE('',#569,#570,#74,.T.);
#711=EDGE_CURVE('',#570,#570,#466,.F.);
#712=EDGE_CURVE('',#571,#571,#467,.T.);
#713=EDGE_CURVE('',#571,#572,#75,.T.);
#714=EDGE_CURVE('',#572,#572,#468,.F.);
#715=EDGE_CURVE('',#573,#573,#469,.T.);
#716=EDGE_CURVE('',#573,#574,#76,.T.);
#717=EDGE_CURVE('',#574,#574,#470,.F.);
#718=EDGE_CURVE('',#575,#534,#471,.T.);
#719=EDGE_CURVE('',#575,#576,#77,.T.);
#720=EDGE_CURVE('',#549,#576,#472,.T.);
#721=EDGE_CURVE('',#577,#548,#473,.T.);
#722=EDGE_CURVE('',#578,#577,#78,.T.);
#723=EDGE_CURVE('',#579,#578,#474,.T.);
#724=EDGE_CURVE('',#535,#579,#79,.T.);
#725=EDGE_CURVE('',#580,#580,#475,.T.);
#726=EDGE_CURVE('',#505,#581,#476,.T.);
#727=EDGE_CURVE('',#581,#582,#80,.T.);
#728=EDGE_CURVE('',#582,#506,#477,.T.);
#729=EDGE_CURVE('',#581,#583,#81,.T.);
#730=EDGE_CURVE('',#584,#583,#82,.T.);
#731=EDGE_CURVE('',#582,#584,#83,.T.);
#732=EDGE_CURVE('',#583,#585,#478,.T.);
#733=EDGE_CURVE('',#585,#586,#84,.T.);
#734=EDGE_CURVE('',#586,#584,#479,.T.);
#735=EDGE_CURVE('',#587,#586,#85,.T.);
#736=EDGE_CURVE('',#588,#587,#480,.T.);
#737=EDGE_CURVE('',#589,#588,#86,.T.);
#738=EDGE_CURVE('',#539,#589,#481,.T.);
#739=EDGE_CURVE('',#507,#538,#87,.T.);
#740=EDGE_CURVE('',#590,#590,#482,.T.);
#741=EDGE_CURVE('',#585,#591,#88,.T.);
#742=EDGE_CURVE('',#587,#591,#89,.T.);
#743=EDGE_CURVE('',#591,#592,#483,.T.);
#744=EDGE_CURVE('',#592,#588,#90,.T.);
#745=EDGE_CURVE('',#593,#540,#484,.T.);
#746=EDGE_CURVE('',#589,#593,#91,.T.);
#747=EDGE_CURVE('',#560,#575,#92,.T.);
#748=EDGE_CURVE('',#576,#559,#93,.T.);
#749=EDGE_CURVE('',#562,#577,#94,.T.);
#750=EDGE_CURVE('',#578,#561,#95,.T.);
#751=EDGE_CURVE('',#510,#579,#17,.T.);
#752=EDGE_CURVE('',#541,#504,#96,.T.);
#753=EDGE_CURVE('',#537,#508,#97,.T.);
#754=EDGE_CURVE('',#509,#536,#98,.T.);
#755=EDGE_CURVE('',#594,#594,#485,.T.);
#756=EDGE_CURVE('',#594,#590,#99,.T.);
#757=EDGE_CURVE('',#593,#592,#100,.T.);
#758=EDGE_CURVE('',#595,#596,#486,.F.);
#759=EDGE_CURVE('',#596,#597,#101,.T.);
#760=EDGE_CURVE('',#597,#598,#487,.T.);
#761=EDGE_CURVE('',#598,#595,#102,.T.);
#762=EDGE_CURVE('',#580,#557,#103,.T.);
#763=EDGE_CURVE('',#596,#556,#104,.T.);
#764=EDGE_CURVE('',#595,#558,#105,.F.);
#765=EDGE_CURVE('',#598,#555,#106,.T.);
#766=EDGE_CURVE('',#597,#554,#107,.T.);
#767=ORIENTED_EDGE('',*,*,#599,.T.);
#768=ORIENTED_EDGE('',*,*,#600,.T.);
#769=ORIENTED_EDGE('',*,*,#601,.T.);
#770=ORIENTED_EDGE('',*,*,#602,.T.);
#771=ORIENTED_EDGE('',*,*,#600,.F.);
#772=ORIENTED_EDGE('',*,*,#603,.F.);
#773=ORIENTED_EDGE('',*,*,#599,.F.);
#774=ORIENTED_EDGE('',*,*,#604,.F.);
#775=ORIENTED_EDGE('',*,*,#605,.T.);
#776=ORIENTED_EDGE('',*,*,#601,.F.);
#777=ORIENTED_EDGE('',*,*,#602,.F.);
#778=ORIENTED_EDGE('',*,*,#605,.F.);
#779=ORIENTED_EDGE('',*,*,#606,.F.);
#780=ORIENTED_EDGE('',*,*,#603,.T.);
#781=ORIENTED_EDGE('',*,*,#607,.T.);
#782=ORIENTED_EDGE('',*,*,#608,.T.);
#783=ORIENTED_EDGE('',*,*,#609,.T.);
#784=ORIENTED_EDGE('',*,*,#607,.F.);
#785=ORIENTED_EDGE('',*,*,#609,.F.);
#786=ORIENTED_EDGE('',*,*,#610,.T.);
#787=ORIENTED_EDGE('',*,*,#611,.F.);
#788=ORIENTED_EDGE('',*,*,#610,.F.);
#789=ORIENTED_EDGE('',*,*,#608,.F.);
#790=ORIENTED_EDGE('',*,*,#611,.T.);
#791=ORIENTED_EDGE('',*,*,#612,.T.);
#792=ORIENTED_EDGE('',*,*,#613,.T.);
#793=ORIENTED_EDGE('',*,*,#614,.F.);
#794=ORIENTED_EDGE('',*,*,#615,.T.);
#795=ORIENTED_EDGE('',*,*,#612,.F.);
#796=ORIENTED_EDGE('',*,*,#615,.F.);
#797=ORIENTED_EDGE('',*,*,#616,.F.);
#798=ORIENTED_EDGE('',*,*,#617,.F.);
#799=ORIENTED_EDGE('',*,*,#618,.F.);
#800=ORIENTED_EDGE('',*,*,#619,.T.);
#801=ORIENTED_EDGE('',*,*,#620,.F.);
#802=ORIENTED_EDGE('',*,*,#621,.T.);
#803=ORIENTED_EDGE('',*,*,#622,.F.);
#804=ORIENTED_EDGE('',*,*,#623,.T.);
#805=ORIENTED_EDGE('',*,*,#624,.F.);
#806=ORIENTED_EDGE('',*,*,#625,.T.);
#807=ORIENTED_EDGE('',*,*,#626,.F.);
#808=ORIENTED_EDGE('',*,*,#627,.F.);
#809=ORIENTED_EDGE('',*,*,#628,.T.);
#810=ORIENTED_EDGE('',*,*,#629,.F.);
#811=ORIENTED_EDGE('',*,*,#630,.T.);
#812=ORIENTED_EDGE('',*,*,#631,.F.);
#813=ORIENTED_EDGE('',*,*,#632,.T.);
#814=ORIENTED_EDGE('',*,*,#633,.F.);
#815=ORIENTED_EDGE('',*,*,#613,.F.);
#816=ORIENTED_EDGE('',*,*,#616,.T.);
#817=ORIENTED_EDGE('',*,*,#614,.T.);
#818=ORIENTED_EDGE('',*,*,#633,.T.);
#819=ORIENTED_EDGE('',*,*,#634,.T.);
#820=ORIENTED_EDGE('',*,*,#635,.T.);
#821=ORIENTED_EDGE('',*,*,#636,.T.);
#822=ORIENTED_EDGE('',*,*,#636,.F.);
#823=ORIENTED_EDGE('',*,*,#637,.F.);
#824=ORIENTED_EDGE('',*,*,#638,.F.);
#825=ORIENTED_EDGE('',*,*,#617,.T.);
#826=ORIENTED_EDGE('',*,*,#634,.F.);
#827=ORIENTED_EDGE('',*,*,#632,.F.);
#828=ORIENTED_EDGE('',*,*,#639,.F.);
#829=ORIENTED_EDGE('',*,*,#640,.T.);
#830=ORIENTED_EDGE('',*,*,#641,.F.);
#831=ORIENTED_EDGE('',*,*,#642,.T.);
#832=ORIENTED_EDGE('',*,*,#643,.F.);
#833=ORIENTED_EDGE('',*,*,#642,.F.);
#834=ORIENTED_EDGE('',*,*,#644,.T.);
#835=ORIENTED_EDGE('',*,*,#645,.T.);
#836=ORIENTED_EDGE('',*,*,#606,.T.);
#837=ORIENTED_EDGE('',*,*,#604,.T.);
#838=ORIENTED_EDGE('',*,*,#645,.F.);
#839=ORIENTED_EDGE('',*,*,#644,.F.);
#840=ORIENTED_EDGE('',*,*,#641,.T.);
#841=ORIENTED_EDGE('',*,*,#618,.T.);
#842=ORIENTED_EDGE('',*,*,#638,.T.);
#843=ORIENTED_EDGE('',*,*,#646,.T.);
#844=ORIENTED_EDGE('',*,*,#647,.T.);
#845=ORIENTED_EDGE('',*,*,#635,.F.);
#846=ORIENTED_EDGE('',*,*,#640,.F.);
#847=ORIENTED_EDGE('',*,*,#648,.F.);
#848=ORIENTED_EDGE('',*,*,#649,.F.);
#849=ORIENTED_EDGE('',*,*,#650,.F.);
#850=ORIENTED_EDGE('',*,*,#651,.F.);
#851=ORIENTED_EDGE('',*,*,#652,.F.);
#852=ORIENTED_EDGE('',*,*,#653,.F.);
#853=ORIENTED_EDGE('',*,*,#654,.T.);
#854=ORIENTED_EDGE('',*,*,#655,.F.);
#855=ORIENTED_EDGE('',*,*,#656,.F.);
#856=ORIENTED_EDGE('',*,*,#657,.F.);
#857=ORIENTED_EDGE('',*,*,#658,.T.);
#858=ORIENTED_EDGE('',*,*,#659,.F.);
#859=ORIENTED_EDGE('',*,*,#660,.F.);
#860=ORIENTED_EDGE('',*,*,#661,.F.);
#861=ORIENTED_EDGE('',*,*,#662,.T.);
#862=ORIENTED_EDGE('',*,*,#663,.F.);
#863=ORIENTED_EDGE('',*,*,#664,.T.);
#864=ORIENTED_EDGE('',*,*,#665,.F.);
#865=ORIENTED_EDGE('',*,*,#666,.F.);
#866=ORIENTED_EDGE('',*,*,#646,.F.);
#867=ORIENTED_EDGE('',*,*,#637,.T.);
#868=ORIENTED_EDGE('',*,*,#643,.T.);
#869=ORIENTED_EDGE('',*,*,#648,.T.);
#870=ORIENTED_EDGE('',*,*,#639,.T.);
#871=ORIENTED_EDGE('',*,*,#631,.T.);
#872=ORIENTED_EDGE('',*,*,#667,.T.);
#873=ORIENTED_EDGE('',*,*,#647,.F.);
#874=ORIENTED_EDGE('',*,*,#666,.T.);
#875=ORIENTED_EDGE('',*,*,#668,.F.);
#876=ORIENTED_EDGE('',*,*,#619,.F.);
#877=ORIENTED_EDGE('',*,*,#667,.F.);
#878=ORIENTED_EDGE('',*,*,#630,.F.);
#879=ORIENTED_EDGE('',*,*,#669,.F.);
#880=ORIENTED_EDGE('',*,*,#649,.T.);
#881=ORIENTED_EDGE('',*,*,#670,.F.);
#882=ORIENTED_EDGE('',*,*,#671,.T.);
#883=ORIENTED_EDGE('',*,*,#652,.T.);
#884=ORIENTED_EDGE('',*,*,#672,.T.);
#885=ORIENTED_EDGE('',*,*,#673,.F.);
#886=ORIENTED_EDGE('',*,*,#671,.F.);
#887=ORIENTED_EDGE('',*,*,#674,.T.);
#888=ORIENTED_EDGE('',*,*,#675,.T.);
#889=ORIENTED_EDGE('',*,*,#653,.T.);
#890=ORIENTED_EDGE('',*,*,#675,.F.);
#891=ORIENTED_EDGE('',*,*,#676,.T.);
#892=ORIENTED_EDGE('',*,*,#677,.F.);
#893=ORIENTED_EDGE('',*,*,#654,.F.);
#894=ORIENTED_EDGE('',*,*,#678,.T.);
#895=ORIENTED_EDGE('',*,*,#679,.T.);
#896=ORIENTED_EDGE('',*,*,#680,.F.);
#897=ORIENTED_EDGE('',*,*,#681,.T.);
#898=ORIENTED_EDGE('',*,*,#682,.F.);
#899=ORIENTED_EDGE('',*,*,#676,.F.);
#900=ORIENTED_EDGE('',*,*,#674,.F.);
#901=ORIENTED_EDGE('',*,*,#670,.T.);
#902=ORIENTED_EDGE('',*,*,#682,.T.);
#903=ORIENTED_EDGE('',*,*,#683,.F.);
#904=ORIENTED_EDGE('',*,*,#684,.T.);
#905=ORIENTED_EDGE('',*,*,#685,.F.);
#906=ORIENTED_EDGE('',*,*,#655,.T.);
#907=ORIENTED_EDGE('',*,*,#677,.T.);
#908=ORIENTED_EDGE('',*,*,#686,.T.);
#909=ORIENTED_EDGE('',*,*,#684,.F.);
#910=ORIENTED_EDGE('',*,*,#687,.T.);
#911=ORIENTED_EDGE('',*,*,#688,.T.);
#912=ORIENTED_EDGE('',*,*,#685,.T.);
#913=ORIENTED_EDGE('',*,*,#689,.T.);
#914=ORIENTED_EDGE('',*,*,#690,.T.);
#915=ORIENTED_EDGE('',*,*,#691,.T.);
#916=ORIENTED_EDGE('',*,*,#692,.T.);
#917=ORIENTED_EDGE('',*,*,#683,.T.);
#918=ORIENTED_EDGE('',*,*,#681,.F.);
#919=ORIENTED_EDGE('',*,*,#693,.F.);
#920=ORIENTED_EDGE('',*,*,#694,.F.);
#921=ORIENTED_EDGE('',*,*,#695,.F.);
#922=ORIENTED_EDGE('',*,*,#656,.T.);
#923=ORIENTED_EDGE('',*,*,#672,.F.);
#924=ORIENTED_EDGE('',*,*,#651,.T.);
#925=ORIENTED_EDGE('',*,*,#696,.F.);
#926=ORIENTED_EDGE('',*,*,#628,.F.);
#927=ORIENTED_EDGE('',*,*,#697,.F.);
#928=ORIENTED_EDGE('',*,*,#698,.T.);
#929=ORIENTED_EDGE('',*,*,#699,.F.);
#930=ORIENTED_EDGE('',*,*,#700,.T.);
#931=ORIENTED_EDGE('',*,*,#701,.T.);
#932=ORIENTED_EDGE('',*,*,#702,.T.);
#933=ORIENTED_EDGE('',*,*,#701,.F.);
#934=ORIENTED_EDGE('',*,*,#702,.F.);
#935=ORIENTED_EDGE('',*,*,#703,.T.);
#936=ORIENTED_EDGE('',*,*,#704,.T.);
#937=ORIENTED_EDGE('',*,*,#705,.T.);
#938=ORIENTED_EDGE('',*,*,#704,.F.);
#939=ORIENTED_EDGE('',*,*,#705,.F.);
#940=ORIENTED_EDGE('',*,*,#706,.T.);
#941=ORIENTED_EDGE('',*,*,#707,.T.);
#942=ORIENTED_EDGE('',*,*,#708,.T.);
#943=ORIENTED_EDGE('',*,*,#707,.F.);
#944=ORIENTED_EDGE('',*,*,#708,.F.);
#945=ORIENTED_EDGE('',*,*,#709,.T.);
#946=ORIENTED_EDGE('',*,*,#710,.T.);
#947=ORIENTED_EDGE('',*,*,#711,.T.);
#948=ORIENTED_EDGE('',*,*,#710,.F.);
#949=ORIENTED_EDGE('',*,*,#711,.F.);
#950=ORIENTED_EDGE('',*,*,#712,.T.);
#951=ORIENTED_EDGE('',*,*,#713,.T.);
#952=ORIENTED_EDGE('',*,*,#714,.T.);
#953=ORIENTED_EDGE('',*,*,#713,.F.);
#954=ORIENTED_EDGE('',*,*,#714,.F.);
#955=ORIENTED_EDGE('',*,*,#715,.T.);
#956=ORIENTED_EDGE('',*,*,#716,.T.);
#957=ORIENTED_EDGE('',*,*,#717,.T.);
#958=ORIENTED_EDGE('',*,*,#716,.F.);
#959=ORIENTED_EDGE('',*,*,#717,.F.);
#960=ORIENTED_EDGE('',*,*,#718,.F.);
#961=ORIENTED_EDGE('',*,*,#719,.T.);
#962=ORIENTED_EDGE('',*,*,#720,.F.);
#963=ORIENTED_EDGE('',*,*,#679,.F.);
#964=ORIENTED_EDGE('',*,*,#721,.F.);
#965=ORIENTED_EDGE('',*,*,#722,.F.);
#966=ORIENTED_EDGE('',*,*,#723,.F.);
#967=ORIENTED_EDGE('',*,*,#724,.F.);
#968=ORIENTED_EDGE('',*,*,#658,.F.);
#969=ORIENTED_EDGE('',*,*,#725,.T.);
#970=ORIENTED_EDGE('',*,*,#726,.T.);
#971=ORIENTED_EDGE('',*,*,#727,.T.);
#972=ORIENTED_EDGE('',*,*,#728,.T.);
#973=ORIENTED_EDGE('',*,*,#622,.T.);
#974=ORIENTED_EDGE('',*,*,#727,.F.);
#975=ORIENTED_EDGE('',*,*,#729,.T.);
#976=ORIENTED_EDGE('',*,*,#730,.F.);
#977=ORIENTED_EDGE('',*,*,#731,.F.);
#978=ORIENTED_EDGE('',*,*,#732,.T.);
#979=ORIENTED_EDGE('',*,*,#733,.T.);
#980=ORIENTED_EDGE('',*,*,#734,.T.);
#981=ORIENTED_EDGE('',*,*,#730,.T.);
#982=ORIENTED_EDGE('',*,*,#734,.F.);
#983=ORIENTED_EDGE('',*,*,#735,.F.);
#984=ORIENTED_EDGE('',*,*,#736,.F.);
#985=ORIENTED_EDGE('',*,*,#737,.F.);
#986=ORIENTED_EDGE('',*,*,#738,.F.);
#987=ORIENTED_EDGE('',*,*,#662,.F.);
#988=ORIENTED_EDGE('',*,*,#739,.F.);
#989=ORIENTED_EDGE('',*,*,#623,.F.);
#990=ORIENTED_EDGE('',*,*,#728,.F.);
#991=ORIENTED_EDGE('',*,*,#731,.T.);
#992=ORIENTED_EDGE('',*,*,#740,.T.);
#993=ORIENTED_EDGE('',*,*,#733,.F.);
#994=ORIENTED_EDGE('',*,*,#741,.T.);
#995=ORIENTED_EDGE('',*,*,#742,.F.);
#996=ORIENTED_EDGE('',*,*,#735,.T.);
#997=ORIENTED_EDGE('',*,*,#736,.T.);
#998=ORIENTED_EDGE('',*,*,#742,.T.);
#999=ORIENTED_EDGE('',*,*,#743,.T.);
#1000=ORIENTED_EDGE('',*,*,#744,.T.);
#1001=ORIENTED_EDGE('',*,*,#745,.T.);
#1002=ORIENTED_EDGE('',*,*,#663,.T.);
#1003=ORIENTED_EDGE('',*,*,#738,.T.);
#1004=ORIENTED_EDGE('',*,*,#746,.T.);
#1005=ORIENTED_EDGE('',*,*,#695,.T.);
#1006=ORIENTED_EDGE('',*,*,#747,.T.);
#1007=ORIENTED_EDGE('',*,*,#718,.T.);
#1008=ORIENTED_EDGE('',*,*,#657,.T.);
#1009=ORIENTED_EDGE('',*,*,#747,.F.);
#1010=ORIENTED_EDGE('',*,*,#694,.T.);
#1011=ORIENTED_EDGE('',*,*,#748,.F.);
#1012=ORIENTED_EDGE('',*,*,#719,.F.);
#1013=ORIENTED_EDGE('',*,*,#693,.T.);
#1014=ORIENTED_EDGE('',*,*,#680,.T.);
#1015=ORIENTED_EDGE('',*,*,#720,.T.);
#1016=ORIENTED_EDGE('',*,*,#748,.T.);
#1017=ORIENTED_EDGE('',*,*,#721,.T.);
#1018=ORIENTED_EDGE('',*,*,#678,.F.);
#1019=ORIENTED_EDGE('',*,*,#673,.T.);
#1020=ORIENTED_EDGE('',*,*,#699,.T.);
#1021=ORIENTED_EDGE('',*,*,#749,.T.);
#1022=ORIENTED_EDGE('',*,*,#749,.F.);
#1023=ORIENTED_EDGE('',*,*,#698,.F.);
#1024=ORIENTED_EDGE('',*,*,#750,.F.);
#1025=ORIENTED_EDGE('',*,*,#722,.T.);
#1026=ORIENTED_EDGE('',*,*,#723,.T.);
#1027=ORIENTED_EDGE('',*,*,#750,.T.);
#1028=ORIENTED_EDGE('',*,*,#697,.T.);
#1029=ORIENTED_EDGE('',*,*,#627,.T.);
#1030=ORIENTED_EDGE('',*,*,#751,.T.);
#1031=ORIENTED_EDGE('',*,*,#629,.T.);
#1032=ORIENTED_EDGE('',*,*,#696,.T.);
#1033=ORIENTED_EDGE('',*,*,#650,.T.);
#1034=ORIENTED_EDGE('',*,*,#669,.T.);
#1035=ORIENTED_EDGE('',*,*,#620,.T.);
#1036=ORIENTED_EDGE('',*,*,#668,.T.);
#1037=ORIENTED_EDGE('',*,*,#665,.T.);
#1038=ORIENTED_EDGE('',*,*,#752,.T.);
#1039=ORIENTED_EDGE('',*,*,#661,.T.);
#1040=ORIENTED_EDGE('',*,*,#753,.T.);
#1041=ORIENTED_EDGE('',*,*,#624,.T.);
#1042=ORIENTED_EDGE('',*,*,#739,.T.);
#1043=ORIENTED_EDGE('',*,*,#753,.F.);
#1044=ORIENTED_EDGE('',*,*,#660,.T.);
#1045=ORIENTED_EDGE('',*,*,#754,.F.);
#1046=ORIENTED_EDGE('',*,*,#625,.F.);
#1047=ORIENTED_EDGE('',*,*,#659,.T.);
#1048=ORIENTED_EDGE('',*,*,#724,.T.);
#1049=ORIENTED_EDGE('',*,*,#751,.F.);
#1050=ORIENTED_EDGE('',*,*,#626,.T.);
#1051=ORIENTED_EDGE('',*,*,#754,.T.);
#1052=ORIENTED_EDGE('',*,*,#755,.F.);
#1053=ORIENTED_EDGE('',*,*,#756,.T.);
#1054=ORIENTED_EDGE('',*,*,#740,.F.);
#1055=ORIENTED_EDGE('',*,*,#756,.F.);
#1056=ORIENTED_EDGE('',*,*,#744,.F.);
#1057=ORIENTED_EDGE('',*,*,#757,.F.);
#1058=ORIENTED_EDGE('',*,*,#746,.F.);
#1059=ORIENTED_EDGE('',*,*,#737,.T.);
#1060=ORIENTED_EDGE('',*,*,#732,.F.);
#1061=ORIENTED_EDGE('',*,*,#729,.F.);
#1062=ORIENTED_EDGE('',*,*,#726,.F.);
#1063=ORIENTED_EDGE('',*,*,#621,.F.);
#1064=ORIENTED_EDGE('',*,*,#752,.F.);
#1065=ORIENTED_EDGE('',*,*,#664,.F.);
#1066=ORIENTED_EDGE('',*,*,#745,.F.);
#1067=ORIENTED_EDGE('',*,*,#757,.T.);
#1068=ORIENTED_EDGE('',*,*,#743,.F.);
#1069=ORIENTED_EDGE('',*,*,#741,.F.);
#1070=ORIENTED_EDGE('',*,*,#755,.T.);
#1071=ORIENTED_EDGE('',*,*,#758,.T.);
#1072=ORIENTED_EDGE('',*,*,#759,.T.);
#1073=ORIENTED_EDGE('',*,*,#760,.T.);
#1074=ORIENTED_EDGE('',*,*,#761,.T.);
#1075=ORIENTED_EDGE('',*,*,#712,.F.);
#1076=ORIENTED_EDGE('',*,*,#703,.F.);
#1077=ORIENTED_EDGE('',*,*,#709,.F.);
#1078=ORIENTED_EDGE('',*,*,#706,.F.);
#1079=ORIENTED_EDGE('',*,*,#700,.F.);
#1080=ORIENTED_EDGE('',*,*,#715,.F.);
#1081=ORIENTED_EDGE('',*,*,#725,.F.);
#1082=ORIENTED_EDGE('',*,*,#762,.T.);
#1083=ORIENTED_EDGE('',*,*,#690,.F.);
#1084=ORIENTED_EDGE('',*,*,#763,.F.);
#1085=ORIENTED_EDGE('',*,*,#758,.F.);
#1086=ORIENTED_EDGE('',*,*,#764,.T.);
#1087=ORIENTED_EDGE('',*,*,#691,.F.);
#1088=ORIENTED_EDGE('',*,*,#762,.F.);
#1089=ORIENTED_EDGE('',*,*,#764,.F.);
#1090=ORIENTED_EDGE('',*,*,#761,.F.);
#1091=ORIENTED_EDGE('',*,*,#765,.T.);
#1092=ORIENTED_EDGE('',*,*,#687,.F.);
#1093=ORIENTED_EDGE('',*,*,#692,.F.);
#1094=ORIENTED_EDGE('',*,*,#765,.F.);
#1095=ORIENTED_EDGE('',*,*,#760,.F.);
#1096=ORIENTED_EDGE('',*,*,#766,.T.);
#1097=ORIENTED_EDGE('',*,*,#688,.F.);
#1098=ORIENTED_EDGE('',*,*,#766,.F.);
#1099=ORIENTED_EDGE('',*,*,#759,.F.);
#1100=ORIENTED_EDGE('',*,*,#763,.T.);
#1101=ORIENTED_EDGE('',*,*,#689,.F.);
#1102=ORIENTED_EDGE('',*,*,#686,.F.);
#1103=TOROIDAL_SURFACE('',#1174,4.9,0.2);
#1104=TOROIDAL_SURFACE('',#1184,6.29999999999999,0.2);
#1105=TOROIDAL_SURFACE('',#1190,7.99999999999999,1.5);
#1106=TOROIDAL_SURFACE('',#1210,4.2,0.5);
#1107=ADVANCED_FACE('',(#271),#1103,.T.);
#1108=ADVANCED_FACE('',(#272,#228),#240,.T.);
#1109=ADVANCED_FACE('',(#273),#198,.F.);
#1110=ADVANCED_FACE('',(#274),#1104,.T.);
#1111=ADVANCED_FACE('',(#275),#199,.T.);
#1112=ADVANCED_FACE('',(#276),#1105,.F.);
#1113=ADVANCED_FACE('',(#277),#241,.T.);
#1114=ADVANCED_FACE('',(#278),#200,.T.);
#1115=ADVANCED_FACE('',(#279),#242,.T.);
#1116=ADVANCED_FACE('',(#280),#243,.T.);
#1117=ADVANCED_FACE('',(#281),#201,.F.);
#1118=ADVANCED_FACE('',(#282),#1106,.F.);
#1119=ADVANCED_FACE('',(#283,#229),#244,.T.);
#1120=ADVANCED_FACE('',(#284),#202,.F.);
#1121=ADVANCED_FACE('',(#285,#230),#245,.F.);
#1122=ADVANCED_FACE('',(#286),#203,.F.);
#1123=ADVANCED_FACE('',(#287),#246,.T.);
#1124=ADVANCED_FACE('',(#288),#247,.T.);
#1125=ADVANCED_FACE('',(#289),#204,.F.);
#1126=ADVANCED_FACE('',(#290),#205,.T.);
#1127=ADVANCED_FACE('',(#291),#248,.T.);
#1128=ADVANCED_FACE('',(#292),#249,.T.);
#1129=ADVANCED_FACE('',(#293),#206,.T.);
#1130=ADVANCED_FACE('',(#294),#250,.T.);
#1131=ADVANCED_FACE('',(#295),#251,.T.);
#1132=ADVANCED_FACE('',(#296),#252,.T.);
#1133=ADVANCED_FACE('',(#297),#207,.F.);
#1134=ADVANCED_FACE('',(#298),#253,.T.);
#1135=ADVANCED_FACE('',(#299),#208,.F.);
#1136=ADVANCED_FACE('',(#300),#254,.T.);
#1137=ADVANCED_FACE('',(#301),#209,.F.);
#1138=ADVANCED_FACE('',(#302),#255,.T.);
#1139=ADVANCED_FACE('',(#303),#210,.F.);
#1140=ADVANCED_FACE('',(#304),#256,.T.);
#1141=ADVANCED_FACE('',(#305),#211,.F.);
#1142=ADVANCED_FACE('',(#306),#257,.T.);
#1143=ADVANCED_FACE('',(#307),#212,.F.);
#1144=ADVANCED_FACE('',(#308),#258,.T.);
#1145=ADVANCED_FACE('',(#309,#231),#259,.T.);
#1146=ADVANCED_FACE('',(#310),#213,.F.);
#1147=ADVANCED_FACE('',(#311),#260,.T.);
#1148=ADVANCED_FACE('',(#312),#214,.T.);
#1149=ADVANCED_FACE('',(#313,#232),#261,.T.);
#1150=ADVANCED_FACE('',(#314),#262,.T.);
#1151=ADVANCED_FACE('',(#315),#215,.T.);
#1152=ADVANCED_FACE('',(#316),#216,.T.);
#1153=ADVANCED_FACE('',(#317),#217,.T.);
#1154=ADVANCED_FACE('',(#318),#263,.T.);
#1155=ADVANCED_FACE('',(#319),#218,.T.);
#1156=ADVANCED_FACE('',(#320),#219,.T.);
#1157=ADVANCED_FACE('',(#321),#264,.T.);
#1158=ADVANCED_FACE('',(#322),#220,.F.);
#1159=ADVANCED_FACE('',(#323),#221,.T.);
#1160=ADVANCED_FACE('',(#324),#222,.T.);
#1161=ADVANCED_FACE('',(#325),#223,.F.);
#1162=ADVANCED_FACE('',(#326),#265,.T.);
#1163=ADVANCED_FACE('',(#327),#224,.F.);
#1164=ADVANCED_FACE('',(#328),#225,.F.);
#1165=ADVANCED_FACE('',(#329),#266,.T.);
#1166=ADVANCED_FACE('',(#330,#233),#267,.T.);
#1167=ADVANCED_FACE('',(#331,#234,#235,#236,#237,#238,#239),#268,.T.);
#1168=ADVANCED_FACE('',(#332),#226,.F.);
#1169=ADVANCED_FACE('',(#333),#269,.F.);
#1170=ADVANCED_FACE('',(#334),#227,.F.);
#1171=ADVANCED_FACE('',(#335),#270,.F.);
#1172=CLOSED_SHELL('',(#1107,#1108,#1109,#1110,#1111,#1112,#1113,#1114,
#1115,#1116,#1117,#1118,#1119,#1120,#1121,#1122,#1123,#1124,#1125,#1126,
#1127,#1128,#1129,#1130,#1131,#1132,#1133,#1134,#1135,#1136,#1137,#1138,
#1139,#1140,#1141,#1142,#1143,#1144,#1145,#1146,#1147,#1148,#1149,#1150,
#1151,#1152,#1153,#1154,#1155,#1156,#1157,#1158,#1159,#1160,#1161,#1162,
#1163,#1164,#1165,#1166,#1167,#1168,#1169,#1170,#1171));
#1173=AXIS2_PLACEMENT_3D('',#1686,#1314,#1315);
#1174=AXIS2_PLACEMENT_3D('',#1687,#1316,#1317);
#1175=AXIS2_PLACEMENT_3D('',#1689,#1318,#1319);
#1176=AXIS2_PLACEMENT_3D('',#1691,#1320,#1321);
#1177=AXIS2_PLACEMENT_3D('',#1693,#1322,#1323);
#1178=AXIS2_PLACEMENT_3D('',#1694,#1324,#1325);
#1179=AXIS2_PLACEMENT_3D('',#1695,#1326,#1327);
#1180=AXIS2_PLACEMENT_3D('',#1697,#1328,#1329);
#1181=AXIS2_PLACEMENT_3D('',#1698,#1330,#1331);
#1182=AXIS2_PLACEMENT_3D('',#1701,#1332,#1333);
#1183=AXIS2_PLACEMENT_3D('',#1703,#1335,#1336);
#1184=AXIS2_PLACEMENT_3D('',#1704,#1337,#1338);
#1185=AXIS2_PLACEMENT_3D('',#1706,#1339,#1340);
#1186=AXIS2_PLACEMENT_3D('',#1708,#1341,#1342);
#1187=AXIS2_PLACEMENT_3D('',#1709,#1343,#1344);
#1188=AXIS2_PLACEMENT_3D('',#1710,#1345,#1346);
#1189=AXIS2_PLACEMENT_3D('',#1713,#1348,#1349);
#1190=AXIS2_PLACEMENT_3D('',#1714,#1350,#1351);
#1191=AXIS2_PLACEMENT_3D('',#1716,#1352,#1353);
#1192=AXIS2_PLACEMENT_3D('',#1718,#1354,#1355);
#1193=AXIS2_PLACEMENT_3D('',#1741,#1356,#1357);
#1194=AXIS2_PLACEMENT_3D('',#1742,#1358,#1359);
#1195=AXIS2_PLACEMENT_3D('',#1744,#1360,#1361);
#1196=AXIS2_PLACEMENT_3D('',#1748,#1363,#1364);
#1197=AXIS2_PLACEMENT_3D('',#1752,#1366,#1367);
#1198=AXIS2_PLACEMENT_3D('',#1760,#1371,#1372);
#1199=AXIS2_PLACEMENT_3D('',#1764,#1374,#1375);
#1200=AXIS2_PLACEMENT_3D('',#1770,#1378,#1379);
#1201=AXIS2_PLACEMENT_3D('',#1774,#1381,#1382);
#1202=AXIS2_PLACEMENT_3D('',#1777,#1384,#1385);
#1203=AXIS2_PLACEMENT_3D('',#1778,#1386,#1387);
#1204=AXIS2_PLACEMENT_3D('',#1782,#1389,#1390);
#1205=AXIS2_PLACEMENT_3D('',#1784,#1392,#1393);
#1206=AXIS2_PLACEMENT_3D('',#1788,#1396,#1397);
#1207=AXIS2_PLACEMENT_3D('',#1792,#1400,#1401);
#1208=AXIS2_PLACEMENT_3D('',#1794,#1402,#1403);
#1209=AXIS2_PLACEMENT_3D('',#1797,#1405,#1406);
#1210=AXIS2_PLACEMENT_3D('',#1798,#1407,#1408);
#1211=AXIS2_PLACEMENT_3D('',#1800,#1409,#1410);
#1212=AXIS2_PLACEMENT_3D('',#1801,#1411,#1412);
#1213=AXIS2_PLACEMENT_3D('',#1802,#1413,#1414);
#1214=AXIS2_PLACEMENT_3D('',#1803,#1415,#1416);
#1215=AXIS2_PLACEMENT_3D('',#1805,#1417,#1418);
#1216=AXIS2_PLACEMENT_3D('',#1807,#1420,#1421);
#1217=AXIS2_PLACEMENT_3D('',#1809,#1422,#1423);
#1218=AXIS2_PLACEMENT_3D('',#1813,#1425,#1426);
#1219=AXIS2_PLACEMENT_3D('',#1817,#1428,#1429);
#1220=AXIS2_PLACEMENT_3D('',#1819,#1430,#1431);
#1221=AXIS2_PLACEMENT_3D('',#1823,#1433,#1434);
#1222=AXIS2_PLACEMENT_3D('',#1831,#1438,#1439);
#1223=AXIS2_PLACEMENT_3D('',#1835,#1441,#1442);
#1224=AXIS2_PLACEMENT_3D('',#1843,#1446,#1447);
#1225=AXIS2_PLACEMENT_3D('',#1845,#1449,#1450);
#1226=AXIS2_PLACEMENT_3D('',#1847,#1452,#1453);
#1227=AXIS2_PLACEMENT_3D('',#1849,#1455,#1456);
#1228=AXIS2_PLACEMENT_3D('',#1851,#1458,#1459);
#1229=AXIS2_PLACEMENT_3D('',#1854,#1460,#1461);
#1230=AXIS2_PLACEMENT_3D('',#1870,#1464,#1465);
#1231=AXIS2_PLACEMENT_3D('',#1872,#1466,#1467);
#1232=AXIS2_PLACEMENT_3D('',#1874,#1469,#1470);
#1233=AXIS2_PLACEMENT_3D('',#1878,#1473,#1474);
#1234=AXIS2_PLACEMENT_3D('',#1887,#1479,#1480);
#1235=AXIS2_PLACEMENT_3D('',#1888,#1481,#1482);
#1236=AXIS2_PLACEMENT_3D('',#1894,#1486,#1487);
#1237=AXIS2_PLACEMENT_3D('',#1899,#1490,#1491);
#1238=AXIS2_PLACEMENT_3D('',#1900,#1492,#1493);
#1239=AXIS2_PLACEMENT_3D('',#1904,#1495,#1496);
#1240=AXIS2_PLACEMENT_3D('',#1906,#1497,#1498);
#1241=AXIS2_PLACEMENT_3D('',#1909,#1500,#1501);
#1242=AXIS2_PLACEMENT_3D('',#1912,#1503,#1504);
#1243=AXIS2_PLACEMENT_3D('',#1913,#1505,#1506);
#1244=AXIS2_PLACEMENT_3D('',#1916,#1508,#1509);
#1245=AXIS2_PLACEMENT_3D('',#1919,#1511,#1512);
#1246=AXIS2_PLACEMENT_3D('',#1920,#1513,#1514);
#1247=AXIS2_PLACEMENT_3D('',#1922,#1515,#1516);
#1248=AXIS2_PLACEMENT_3D('',#1925,#1518,#1519);
#1249=AXIS2_PLACEMENT_3D('',#1926,#1520,#1521);
#1250=AXIS2_PLACEMENT_3D('',#1927,#1522,#1523);
#1251=AXIS2_PLACEMENT_3D('',#1929,#1524,#1525);
#1252=AXIS2_PLACEMENT_3D('',#1932,#1527,#1528);
#1253=AXIS2_PLACEMENT_3D('',#1933,#1529,#1530);
#1254=AXIS2_PLACEMENT_3D('',#1934,#1531,#1532);
#1255=AXIS2_PLACEMENT_3D('',#1936,#1533,#1534);
#1256=AXIS2_PLACEMENT_3D('',#1939,#1536,#1537);
#1257=AXIS2_PLACEMENT_3D('',#1940,#1538,#1539);
#1258=AXIS2_PLACEMENT_3D('',#1941,#1540,#1541);
#1259=AXIS2_PLACEMENT_3D('',#1943,#1542,#1543);
#1260=AXIS2_PLACEMENT_3D('',#1946,#1545,#1546);
#1261=AXIS2_PLACEMENT_3D('',#1947,#1547,#1548);
#1262=AXIS2_PLACEMENT_3D('',#1948,#1549,#1550);
#1263=AXIS2_PLACEMENT_3D('',#1950,#1551,#1552);
#1264=AXIS2_PLACEMENT_3D('',#1953,#1554,#1555);
#1265=AXIS2_PLACEMENT_3D('',#1954,#1556,#1557);
#1266=AXIS2_PLACEMENT_3D('',#1955,#1558,#1559);
#1267=AXIS2_PLACEMENT_3D('',#1957,#1560,#1561);
#1268=AXIS2_PLACEMENT_3D('',#1960,#1563,#1564);
#1269=AXIS2_PLACEMENT_3D('',#1961,#1565,#1566);
#1270=AXIS2_PLACEMENT_3D('',#1962,#1567,#1568);
#1271=AXIS2_PLACEMENT_3D('',#1964,#1569,#1570);
#1272=AXIS2_PLACEMENT_3D('',#1967,#1572,#1573);
#1273=AXIS2_PLACEMENT_3D('',#1969,#1574,#1575);
#1274=AXIS2_PLACEMENT_3D('',#1973,#1577,#1578);
#1275=AXIS2_PLACEMENT_3D('',#1976,#1580,#1581);
#1276=AXIS2_PLACEMENT_3D('',#1977,#1582,#1583);
#1277=AXIS2_PLACEMENT_3D('',#1979,#1584,#1585);
#1278=AXIS2_PLACEMENT_3D('',#1982,#1587,#1588);
#1279=AXIS2_PLACEMENT_3D('',#1983,#1589,#1590);
#1280=AXIS2_PLACEMENT_3D('',#1989,#1594,#1595);
#1281=AXIS2_PLACEMENT_3D('',#1991,#1596,#1597);
#1282=AXIS2_PLACEMENT_3D('',#1994,#1599,#1600);
#1283=AXIS2_PLACEMENT_3D('',#1995,#1601,#1602);
#1284=AXIS2_PLACEMENT_3D('',#1999,#1604,#1605);
#1285=AXIS2_PLACEMENT_3D('',#2002,#1607,#1608);
#1286=AXIS2_PLACEMENT_3D('',#2005,#1610,#1611);
#1287=AXIS2_PLACEMENT_3D('',#2006,#1612,#1613);
#1288=AXIS2_PLACEMENT_3D('',#2010,#1616,#1617);
#1289=AXIS2_PLACEMENT_3D('',#2012,#1618,#1619);
#1290=AXIS2_PLACEMENT_3D('',#2014,#1621,#1622);
#1291=AXIS2_PLACEMENT_3D('',#2016,#1623,#1624);
#1292=AXIS2_PLACEMENT_3D('',#2018,#1626,#1627);
#1293=AXIS2_PLACEMENT_3D('',#2020,#1629,#1630);
#1294=AXIS2_PLACEMENT_3D('',#2022,#1632,#1633);
#1295=AXIS2_PLACEMENT_3D('',#2023,#1634,#1635);
#1296=AXIS2_PLACEMENT_3D('',#2025,#1637,#1638);
#1297=AXIS2_PLACEMENT_3D('',#2027,#1640,#1641);
#1298=AXIS2_PLACEMENT_3D('',#2036,#1642,#1643);
#1299=AXIS2_PLACEMENT_3D('',#2037,#1644,#1645);
#1300=AXIS2_PLACEMENT_3D('',#2039,#1647,#1648);
#1301=AXIS2_PLACEMENT_3D('',#2041,#1650,#1651);
#1302=AXIS2_PLACEMENT_3D('',#2043,#1653,#1654);
#1303=AXIS2_PLACEMENT_3D('',#2044,#1655,#1656);
#1304=AXIS2_PLACEMENT_3D('',#2046,#1657,#1658);
#1305=AXIS2_PLACEMENT_3D('',#2048,#1660,#1661);
#1306=AXIS2_PLACEMENT_3D('',#2050,#1663,#1664);
#1307=AXIS2_PLACEMENT_3D('',#2051,#1665,#1666);
#1308=AXIS2_PLACEMENT_3D('',#2054,#1667,#1668);
#1309=AXIS2_PLACEMENT_3D('',#2058,#1670,#1671);
#1310=AXIS2_PLACEMENT_3D('',#2060,#1673,#1674);
#1311=AXIS2_PLACEMENT_3D('',#2064,#1678,#1679);
#1312=AXIS2_PLACEMENT_3D('',#2066,#1681,#1682);
#1313=AXIS2_PLACEMENT_3D('',#2068,#1684,#1685);
#1314=DIRECTION('axis',(0.,0.,1.));
#1315=DIRECTION('refdir',(1.,0.,0.));
#1316=DIRECTION('center_axis',(0.,0.,-1.));
#1317=DIRECTION('ref_axis',(-1.,0.,0.));
#1318=DIRECTION('center_axis',(0.,0.,1.));
#1319=DIRECTION('ref_axis',(-1.,-9.44870659255515E-16,0.));
#1320=DIRECTION('center_axis',(0.,-1.,0.));
#1321=DIRECTION('ref_axis',(1.,0.,0.));
#1322=DIRECTION('center_axis',(0.,0.,-1.));
#1323=DIRECTION('ref_axis',(-1.,-9.44870659255515E-16,0.));
#1324=DIRECTION('center_axis',(0.,0.,-1.));
#1325=DIRECTION('ref_axis',(-1.,-9.44870659255515E-16,0.));
#1326=DIRECTION('center_axis',(0.,0.,1.));
#1327=DIRECTION('ref_axis',(-1.,0.,0.));
#1328=DIRECTION('center_axis',(0.,0.,-1.));
#1329=DIRECTION('ref_axis',(-1.,0.,0.));
#1330=DIRECTION('center_axis',(-1.75415237890774E-14,2.5500435096859E-16,
1.));
#1331=DIRECTION('ref_axis',(1.,4.53658966170104E-30,1.75415237890774E-14));
#1332=DIRECTION('center_axis',(0.,0.,1.));
#1333=DIRECTION('ref_axis',(1.,0.,0.));
#1334=DIRECTION('',(-1.75415237890774E-14,2.5500435096859E-16,1.));
#1335=DIRECTION('center_axis',(0.,0.,1.));
#1336=DIRECTION('ref_axis',(1.,0.,0.));
#1337=DIRECTION('center_axis',(0.,0.,1.));
#1338=DIRECTION('ref_axis',(1.,0.,0.));
#1339=DIRECTION('center_axis',(0.,-1.,0.));
#1340=DIRECTION('ref_axis',(-1.,0.,0.));
#1341=DIRECTION('center_axis',(0.,0.,1.));
#1342=DIRECTION('ref_axis',(-1.,0.,0.));
#1343=DIRECTION('center_axis',(0.,0.,1.));
#1344=DIRECTION('ref_axis',(-1.,0.,0.));
#1345=DIRECTION('center_axis',(0.,0.,1.));
#1346=DIRECTION('ref_axis',(-1.,0.,0.));
#1347=DIRECTION('',(0.,0.,-1.));
#1348=DIRECTION('center_axis',(0.,0.,-1.));
#1349=DIRECTION('ref_axis',(-1.,0.,0.));
#1350=DIRECTION('center_axis',(0.,0.,-1.));
#1351=DIRECTION('ref_axis',(-1.,0.,0.));
#1352=DIRECTION('center_axis',(-2.33731163078981E-16,-1.,0.));
#1353=DIRECTION('ref_axis',(1.,-2.33731163078981E-16,0.));
#1354=DIRECTION('center_axis',(0.,0.,1.));
#1355=DIRECTION('ref_axis',(-1.,0.,0.));
#1356=DIRECTION('center_axis',(0.,0.,1.));
#1357=DIRECTION('ref_axis',(-1.,0.,0.));
#1358=DIRECTION('center_axis',(0.,0.,1.));
#1359=DIRECTION('ref_axis',(1.,0.,0.));
#1360=DIRECTION('center_axis',(0.,0.,-1.));
#1361=DIRECTION('ref_axis',(-0.707106781186548,0.707106781186548,0.));
#1362=DIRECTION('',(-1.,0.,0.));
#1363=DIRECTION('center_axis',(0.,0.,1.));
#1364=DIRECTION('ref_axis',(0.707106781186548,0.707106781186548,0.));
#1365=DIRECTION('',(0.,-1.,0.));
#1366=DIRECTION('center_axis',(0.,0.,-1.));
#1367=DIRECTION('ref_axis',(-0.707106781186546,-0.707106781186549,0.));
#1368=DIRECTION('',(1.,0.,0.));
#1369=DIRECTION('',(0.,-1.,0.));
#1370=DIRECTION('',(-1.,0.,0.));
#1371=DIRECTION('center_axis',(0.,0.,1.));
#1372=DIRECTION('ref_axis',(-0.707106781186547,-0.707106781186547,0.));
#1373=DIRECTION('',(0.,1.,0.));
#1374=DIRECTION('center_axis',(0.,0.,1.));
#1375=DIRECTION('ref_axis',(-0.707106781186544,0.707106781186551,0.));
#1376=DIRECTION('',(0.,-1.,0.));
#1377=DIRECTION('',(-1.,0.,0.));
#1378=DIRECTION('center_axis',(0.,0.,-1.));
#1379=DIRECTION('ref_axis',(-0.707106781186551,0.707106781186544,0.));
#1380=DIRECTION('',(0.,-1.,0.));
#1381=DIRECTION('center_axis',(0.,0.,1.));
#1382=DIRECTION('ref_axis',(0.707106781186548,-0.707106781186548,0.));
#1383=DIRECTION('',(-1.,0.,0.));
#1384=DIRECTION('center_axis',(0.,0.,-1.));
#1385=DIRECTION('ref_axis',(-0.707106781186548,0.707106781186548,0.));
#1386=DIRECTION('center_axis',(0.,0.,1.));
#1387=DIRECTION('ref_axis',(-0.707106781186548,-0.707106781186548,0.));
#1388=DIRECTION('',(0.,0.,-1.));
#1389=DIRECTION('center_axis',(0.,0.,1.));
#1390=DIRECTION('ref_axis',(-0.707106781186548,-0.707106781186548,0.));
#1391=DIRECTION('',(0.,0.,1.));
#1392=DIRECTION('center_axis',(0.,-1.,0.));
#1393=DIRECTION('ref_axis',(0.,0.,1.));
#1394=DIRECTION('',(-1.,0.,0.));
#1395=DIRECTION('',(0.,0.,-1.));
#1396=DIRECTION('center_axis',(0.,1.,0.));
#1397=DIRECTION('ref_axis',(0.,0.,-1.));
#1398=DIRECTION('',(0.,0.,1.));
#1399=DIRECTION('',(-1.,0.,0.));
#1400=DIRECTION('center_axis',(0.,0.,-1.));
#1401=DIRECTION('ref_axis',(-1.,0.,0.));
#1402=DIRECTION('center_axis',(0.,0.,-1.));
#1403=DIRECTION('ref_axis',(-1.,0.,0.));
#1404=DIRECTION('',(0.,0.,-1.));
#1405=DIRECTION('center_axis',(0.,0.,1.));
#1406=DIRECTION('ref_axis',(-1.,0.,0.));
#1407=DIRECTION('center_axis',(0.,0.,-1.));
#1408=DIRECTION('ref_axis',(-1.,0.,0.));
#1409=DIRECTION('center_axis',(0.,0.,-1.));
#1410=DIRECTION('ref_axis',(1.,0.,0.));
#1411=DIRECTION('center_axis',(0.,-1.,0.));
#1412=DIRECTION('ref_axis',(1.,0.,0.));
#1413=DIRECTION('center_axis',(0.,0.,1.));
#1414=DIRECTION('ref_axis',(0.,-1.,0.));
#1415=DIRECTION('center_axis',(0.,0.,-1.));
#1416=DIRECTION('ref_axis',(0.707106781186548,0.707106781186548,0.));
#1417=DIRECTION('center_axis',(0.,0.,-1.));
#1418=DIRECTION('ref_axis',(0.707106781186548,0.707106781186548,0.));
#1419=DIRECTION('',(0.,0.,1.));
#1420=DIRECTION('center_axis',(0.,0.,1.));
#1421=DIRECTION('ref_axis',(1.,0.,0.));
#1422=DIRECTION('center_axis',(0.,0.,-1.));
#1423=DIRECTION('ref_axis',(0.707106781186548,-0.707106781186548,0.));
#1424=DIRECTION('',(0.,-1.,0.));
#1425=DIRECTION('center_axis',(0.,0.,1.));
#1426=DIRECTION('ref_axis',(-0.707106781186551,0.707106781186544,0.));
#1427=DIRECTION('',(-1.,0.,0.));
#1428=DIRECTION('center_axis',(0.,0.,-1.));
#1429=DIRECTION('ref_axis',(0.500000000000001,-0.866025403784438,0.));
#1430=DIRECTION('center_axis',(0.,0.,1.));
#1431=DIRECTION('ref_axis',(-0.707106781186548,0.707106781186548,0.));
#1432=DIRECTION('',(1.,0.,0.));
#1433=DIRECTION('center_axis',(0.,0.,1.));
#1434=DIRECTION('ref_axis',(0.707106781186546,0.707106781186549,0.));
#1435=DIRECTION('',(-1.,0.,0.));
#1436=DIRECTION('',(0.,1.,0.));
#1437=DIRECTION('',(-1.,0.,0.));
#1438=DIRECTION('center_axis',(0.,0.,-1.));
#1439=DIRECTION('ref_axis',(-0.707106781186544,0.707106781186551,0.));
#1440=DIRECTION('',(0.,1.,0.));
#1441=DIRECTION('center_axis',(0.,0.,-1.));
#1442=DIRECTION('ref_axis',(-0.707106781186547,-0.707106781186547,0.));
#1443=DIRECTION('',(1.,0.,0.));
#1444=DIRECTION('',(0.,1.,0.));
#1445=DIRECTION('',(-1.,0.,0.));
#1446=DIRECTION('center_axis',(0.,0.,1.));
#1447=DIRECTION('ref_axis',(-0.707106781186546,-0.707106781186549,0.));
#1448=DIRECTION('',(0.,-1.,0.));
#1449=DIRECTION('center_axis',(0.,0.,1.));
#1450=DIRECTION('ref_axis',(0.707106781186548,-0.707106781186548,0.));
#1451=DIRECTION('',(0.,0.,-1.));
#1452=DIRECTION('center_axis',(-1.,0.,0.));
#1453=DIRECTION('ref_axis',(0.,-1.,0.));
#1454=DIRECTION('',(0.,0.,-1.));
#1455=DIRECTION('center_axis',(-1.,0.,0.));
#1456=DIRECTION('ref_axis',(0.,-1.,0.));
#1457=DIRECTION('',(0.,0.,1.));
#1458=DIRECTION('center_axis',(0.,0.,-1.));
#1459=DIRECTION('ref_axis',(0.500000000000001,-0.866025403784438,0.));
#1460=DIRECTION('center_axis',(0.,0.,1.));
#1461=DIRECTION('ref_axis',(0.500000000000001,-0.866025403784438,0.));
#1462=DIRECTION('',(0.,0.,-1.));
#1463=DIRECTION('',(0.,0.,1.));
#1464=DIRECTION('center_axis',(0.,0.,1.));
#1465=DIRECTION('ref_axis',(-0.707106781186548,0.707106781186548,0.));
#1466=DIRECTION('center_axis',(0.,0.,-1.));
#1467=DIRECTION('ref_axis',(-0.707106781186548,0.707106781186548,0.));
#1468=DIRECTION('',(0.,0.,-1.));
#1469=DIRECTION('center_axis',(0.,1.,0.));
#1470=DIRECTION('ref_axis',(0.,0.,1.));
#1471=DIRECTION('',(1.,0.,0.));
#1472=DIRECTION('',(0.,0.,1.));
#1473=DIRECTION('center_axis',(0.,0.,1.));
#1474=DIRECTION('ref_axis',(1.,0.,0.));
#1475=DIRECTION('',(0.,-1.,0.));
#1476=DIRECTION('',(1.,0.,0.));
#1477=DIRECTION('',(0.,-1.,0.));
#1478=DIRECTION('',(-1.,0.,0.));
#1479=DIRECTION('center_axis',(0.,0.,-1.));
#1480=DIRECTION('ref_axis',(0.707106781186546,0.707106781186549,0.));
#1481=DIRECTION('center_axis',(0.,0.,1.));
#1482=DIRECTION('ref_axis',(0.707106781186546,0.707106781186549,0.));
#1483=DIRECTION('',(0.,0.,1.));
#1484=DIRECTION('',(0.,0.,-1.));
#1485=DIRECTION('',(0.,0.,1.));
#1486=DIRECTION('center_axis',(0.,-1.,0.));
#1487=DIRECTION('ref_axis',(0.,0.,-1.));
#1488=DIRECTION('',(0.998510440144325,0.,-0.0545609835210729));
#1489=DIRECTION('',(-0.998510440144325,0.,-0.0545609835210727));
#1490=DIRECTION('center_axis',(0.,-1.,0.));
#1491=DIRECTION('ref_axis',(-4.93038065763133E-32,-2.73691106313441E-48,
1.));
#1492=DIRECTION('center_axis',(0.,1.,0.));
#1493=DIRECTION('ref_axis',(-1.,0.,0.));
#1494=DIRECTION('',(0.998510440144325,0.,-0.0545609835210729));
#1495=DIRECTION('center_axis',(0.,-1.,0.));
#1496=DIRECTION('ref_axis',(-4.93038065763132E-32,-2.73691106313441E-48,
1.));
#1497=DIRECTION('center_axis',(0.,-1.,0.));
#1498=DIRECTION('ref_axis',(-4.93038065763132E-32,-2.73691106313441E-48,
1.));
#1499=DIRECTION('',(-0.998510440144325,0.,-0.0545609835210727));
#1500=DIRECTION('center_axis',(0.,-1.,0.));
#1501=DIRECTION('ref_axis',(0.707106781186548,0.,0.707106781186547));
#1502=DIRECTION('',(0.,0.,1.));
#1503=DIRECTION('center_axis',(0.,-1.,0.));
#1504=DIRECTION('ref_axis',(0.707106781186547,0.,-0.707106781186548));
#1505=DIRECTION('center_axis',(0.,1.,0.));
#1506=DIRECTION('ref_axis',(-1.,0.,0.));
#1507=DIRECTION('',(0.,0.,-1.));
#1508=DIRECTION('center_axis',(0.,1.,0.));
#1509=DIRECTION('ref_axis',(0.707106781186546,0.,-0.707106781186549));
#1510=DIRECTION('',(0.,0.,1.));
#1511=DIRECTION('center_axis',(0.,-1.,0.));
#1512=DIRECTION('ref_axis',(-0.707106781186547,0.,0.707106781186548));
#1513=DIRECTION('center_axis',(0.,-1.,0.));
#1514=DIRECTION('ref_axis',(-4.93038065763132E-32,0.,1.));
#1515=DIRECTION('center_axis',(-5.55111512312578E-17,1.,-3.64629801437176E-63));
#1516=DIRECTION('ref_axis',(-4.93038065763132E-32,0.,1.));
#1517=DIRECTION('',(0.,-1.,0.));
#1518=DIRECTION('center_axis',(0.,1.,0.));
#1519=DIRECTION('ref_axis',(-4.93038065763132E-32,0.,1.));
#1520=DIRECTION('center_axis',(0.,1.,0.));
#1521=DIRECTION('ref_axis',(-1.,0.,0.));
#1522=DIRECTION('center_axis',(0.,-1.,0.));
#1523=DIRECTION('ref_axis',(-4.93038065763132E-32,0.,1.));
#1524=DIRECTION('center_axis',(-5.55111512312578E-17,1.,-3.64629801437176E-63));
#1525=DIRECTION('ref_axis',(-4.93038065763132E-32,0.,1.));
#1526=DIRECTION('',(0.,-1.,0.));
#1527=DIRECTION('center_axis',(0.,1.,0.));
#1528=DIRECTION('ref_axis',(-4.93038065763132E-32,0.,1.));
#1529=DIRECTION('center_axis',(0.,1.,0.));
#1530=DIRECTION('ref_axis',(-1.,0.,0.));
#1531=DIRECTION('center_axis',(0.,-1.,0.));
#1532=DIRECTION('ref_axis',(-4.93038065763132E-32,0.,1.));
#1533=DIRECTION('center_axis',(-5.55111512312578E-17,1.,-3.64629801437176E-63));
#1534=DIRECTION('ref_axis',(-4.93038065763132E-32,0.,1.));
#1535=DIRECTION('',(0.,-1.,0.));
#1536=DIRECTION('center_axis',(0.,1.,0.));
#1537=DIRECTION('ref_axis',(-4.93038065763132E-32,0.,1.));
#1538=DIRECTION('center_axis',(0.,1.,0.));
#1539=DIRECTION('ref_axis',(-1.,0.,0.));
#1540=DIRECTION('center_axis',(0.,-1.,0.));
#1541=DIRECTION('ref_axis',(-4.93038065763132E-32,0.,1.));
#1542=DIRECTION('center_axis',(-5.55111512312578E-17,1.,-3.64629801437176E-63));
#1543=DIRECTION('ref_axis',(-4.93038065763132E-32,0.,1.));
#1544=DIRECTION('',(0.,-1.,0.));
#1545=DIRECTION('center_axis',(0.,1.,0.));
#1546=DIRECTION('ref_axis',(-4.93038065763132E-32,0.,1.));
#1547=DIRECTION('center_axis',(0.,1.,0.));
#1548=DIRECTION('ref_axis',(-1.,0.,0.));
#1549=DIRECTION('center_axis',(0.,-1.,0.));
#1550=DIRECTION('ref_axis',(-4.93038065763132E-32,0.,1.));
#1551=DIRECTION('center_axis',(-5.55111512312578E-17,1.,-3.64629801437176E-63));
#1552=DIRECTION('ref_axis',(-4.93038065763132E-32,0.,1.));
#1553=DIRECTION('',(0.,-1.,0.));
#1554=DIRECTION('center_axis',(0.,1.,0.));
#1555=DIRECTION('ref_axis',(-4.93038065763132E-32,0.,1.));
#1556=DIRECTION('center_axis',(0.,1.,0.));
#1557=DIRECTION('ref_axis',(-1.,0.,0.));
#1558=DIRECTION('center_axis',(0.,-1.,0.));
#1559=DIRECTION('ref_axis',(-4.93038065763132E-32,0.,1.));
#1560=DIRECTION('center_axis',(-5.55111512312578E-17,1.,-3.64629801437176E-63));
#1561=DIRECTION('ref_axis',(-4.93038065763132E-32,0.,1.));
#1562=DIRECTION('',(0.,-1.,0.));
#1563=DIRECTION('center_axis',(0.,1.,0.));
#1564=DIRECTION('ref_axis',(-4.93038065763132E-32,0.,1.));
#1565=DIRECTION('center_axis',(0.,1.,0.));
#1566=DIRECTION('ref_axis',(-1.,0.,0.));
#1567=DIRECTION('center_axis',(0.,-1.,0.));
#1568=DIRECTION('ref_axis',(1.,0.,0.));
#1569=DIRECTION('center_axis',(0.,1.,0.));
#1570=DIRECTION('ref_axis',(0.707106781186547,0.,-0.707106781186548));
#1571=DIRECTION('',(0.,0.,1.));
#1572=DIRECTION('center_axis',(0.,1.,0.));
#1573=DIRECTION('ref_axis',(0.707106781186548,0.,0.707106781186547));
#1574=DIRECTION('center_axis',(0.,1.,0.));
#1575=DIRECTION('ref_axis',(-0.707106781186547,0.,0.707106781186548));
#1576=DIRECTION('',(0.,0.,1.));
#1577=DIRECTION('center_axis',(0.,-1.,0.));
#1578=DIRECTION('ref_axis',(0.707106781186546,0.,-0.707106781186549));
#1579=DIRECTION('',(0.,0.,1.));
#1580=DIRECTION('center_axis',(0.,1.,0.));
#1581=DIRECTION('ref_axis',(-4.93038065763132E-32,-2.73691106313441E-48,
1.));
#1582=DIRECTION('center_axis',(0.,1.,0.));
#1583=DIRECTION('ref_axis',(0.707106781186548,0.,-0.707106781186548));
#1584=DIRECTION('center_axis',(0.,-1.,0.));
#1585=DIRECTION('ref_axis',(0.707106781186548,0.,-0.707106781186548));
#1586=DIRECTION('',(0.,1.,0.));
#1587=DIRECTION('center_axis',(0.,1.,0.));
#1588=DIRECTION('ref_axis',(0.707106781186548,0.,-0.707106781186548));
#1589=DIRECTION('center_axis',(-1.,0.,0.));
#1590=DIRECTION('ref_axis',(0.,-1.,0.));
#1591=DIRECTION('',(0.,0.,1.));
#1592=DIRECTION('',(0.,-1.,0.));
#1593=DIRECTION('',(0.,0.,1.));
#1594=DIRECTION('center_axis',(0.,-1.,0.));
#1595=DIRECTION('ref_axis',(-0.707106781186548,0.,0.707106781186548));
#1596=DIRECTION('center_axis',(0.,1.,0.));
#1597=DIRECTION('ref_axis',(-0.707106781186548,0.,0.707106781186548));
#1598=DIRECTION('',(0.,1.,0.));
#1599=DIRECTION('center_axis',(0.,-1.,0.));
#1600=DIRECTION('ref_axis',(-0.707106781186548,0.,0.707106781186548));
#1601=DIRECTION('center_axis',(0.,1.,0.));
#1602=DIRECTION('ref_axis',(-1.,0.,0.));
#1603=DIRECTION('',(-1.,0.,0.));
#1604=DIRECTION('center_axis',(0.,-1.,0.));
#1605=DIRECTION('ref_axis',(0.707106781186547,0.,0.707106781186548));
#1606=DIRECTION('',(0.,0.,1.));
#1607=DIRECTION('center_axis',(0.,-1.,0.));
#1608=DIRECTION('ref_axis',(0.707106781186547,0.,-0.707106781186548));
#1609=DIRECTION('',(0.,0.,-1.));
#1610=DIRECTION('center_axis',(0.,-1.,0.));
#1611=DIRECTION('ref_axis',(1.,0.,0.));
#1612=DIRECTION('center_axis',(0.,0.,1.));
#1613=DIRECTION('ref_axis',(1.,0.,0.));
#1614=DIRECTION('',(1.,0.,0.));
#1615=DIRECTION('',(0.,-1.,0.));
#1616=DIRECTION('center_axis',(0.,1.,0.));
#1617=DIRECTION('ref_axis',(0.707106781186547,0.,0.707106781186548));
#1618=DIRECTION('center_axis',(0.,1.,0.));
#1619=DIRECTION('ref_axis',(0.707106781186547,0.,0.707106781186548));
#1620=DIRECTION('',(0.,1.,0.));
#1621=DIRECTION('center_axis',(0.,-1.,0.));
#1622=DIRECTION('ref_axis',(0.707106781186547,0.,-0.707106781186548));
#1623=DIRECTION('center_axis',(0.,1.,0.));
#1624=DIRECTION('ref_axis',(0.707106781186547,0.,-0.707106781186548));
#1625=DIRECTION('',(0.,-1.,0.));
#1626=DIRECTION('center_axis',(0.,-1.,0.));
#1627=DIRECTION('ref_axis',(0.707106781186547,0.,-0.707106781186548));
#1628=DIRECTION('',(0.,-1.,0.));
#1629=DIRECTION('center_axis',(1.,0.,0.));
#1630=DIRECTION('ref_axis',(0.,1.,0.));
#1631=DIRECTION('',(0.,1.,0.));
#1632=DIRECTION('center_axis',(0.,1.,0.));
#1633=DIRECTION('ref_axis',(0.707106781186548,0.,0.707106781186547));
#1634=DIRECTION('center_axis',(0.,-1.,0.));
#1635=DIRECTION('ref_axis',(-0.707106781186547,0.,0.707106781186548));
#1636=DIRECTION('',(0.,-1.,0.));
#1637=DIRECTION('center_axis',(-1.,0.,0.));
#1638=DIRECTION('ref_axis',(0.,-1.,0.));
#1639=DIRECTION('',(0.,1.,0.));
#1640=DIRECTION('center_axis',(0.,1.,0.));
#1641=DIRECTION('ref_axis',(0.707106781186546,0.,-0.707106781186549));
#1642=DIRECTION('center_axis',(0.,0.,1.));
#1643=DIRECTION('ref_axis',(-0.707106781186551,0.707106781186544,0.));
#1644=DIRECTION('center_axis',(0.,0.,1.));
#1645=DIRECTION('ref_axis',(-0.707106781186546,-0.707106781186549,0.));
#1646=DIRECTION('',(0.,0.,1.));
#1647=DIRECTION('center_axis',(0.,0.,1.));
#1648=DIRECTION('ref_axis',(-0.707106781186547,-0.707106781186547,0.));
#1649=DIRECTION('',(0.,0.,1.));
#1650=DIRECTION('center_axis',(1.,0.,0.));
#1651=DIRECTION('ref_axis',(0.,1.,0.));
#1652=DIRECTION('',(0.,0.,-1.));
#1653=DIRECTION('center_axis',(0.,0.,1.));
#1654=DIRECTION('ref_axis',(-0.707106781186544,0.707106781186551,0.));
#1655=DIRECTION('center_axis',(0.,1.,0.));
#1656=DIRECTION('ref_axis',(1.,0.,0.));
#1657=DIRECTION('center_axis',(0.,1.,0.));
#1658=DIRECTION('ref_axis',(1.,0.,0.));
#1659=DIRECTION('',(0.,1.,0.));
#1660=DIRECTION('center_axis',(1.,0.,0.));
#1661=DIRECTION('ref_axis',(0.,1.,0.));
#1662=DIRECTION('',(0.,0.,1.));
#1663=DIRECTION('center_axis',(0.,-1.,0.));
#1664=DIRECTION('ref_axis',(1.,0.,0.));
#1665=DIRECTION('center_axis',(-5.55111512312578E-17,1.,-3.64629801437176E-63));
#1666=DIRECTION('ref_axis',(-4.93038065763132E-32,-2.73691106313441E-48,
1.));
#1667=DIRECTION('center_axis',(-5.55111512312578E-17,1.,-3.64629801437176E-63));
#1668=DIRECTION('ref_axis',(-4.93038065763132E-32,-2.73691106313441E-48,
1.));
#1669=DIRECTION('',(-0.998510440144325,-5.54284640488415E-17,0.0545609835210729));
#1670=DIRECTION('center_axis',(-5.55111512312578E-17,1.,-3.64629801437176E-63));
#1671=DIRECTION('ref_axis',(-4.93038065763133E-32,-2.73691106313441E-48,
1.));
#1672=DIRECTION('',(0.998510440144325,5.54284640488415E-17,0.0545609835210727));
#1673=DIRECTION('center_axis',(-5.55111512312578E-17,1.,-3.64629801437176E-63));
#1674=DIRECTION('ref_axis',(-4.93038065763132E-32,-2.73691106313441E-48,
1.));
#1675=DIRECTION('',(-5.55111512312578E-17,1.,-3.64629801437176E-63));
#1676=DIRECTION('',(-5.55111512312578E-17,1.,-3.64629801437176E-63));
#1677=DIRECTION('',(5.55111512312578E-17,-1.,3.64629801437176E-63));
#1678=DIRECTION('center_axis',(-0.0545609835210727,-3.02874300756443E-18,
0.998510440144325));
#1679=DIRECTION('ref_axis',(0.998510440144325,5.54284640488415E-17,0.0545609835210727));
#1680=DIRECTION('',(0.,1.,0.));
#1681=DIRECTION('center_axis',(-5.55111512312578E-17,1.,-3.64629801437176E-63));
#1682=DIRECTION('ref_axis',(-4.93038065763133E-32,-2.73691106313441E-48,
1.));
#1683=DIRECTION('',(0.,1.,0.));
#1684=DIRECTION('center_axis',(-0.0545609835210729,-3.02874300756444E-18,
-0.998510440144325));
#1685=DIRECTION('ref_axis',(-0.998510440144325,-5.54284640488415E-17,0.0545609835210729));
#1686=CARTESIAN_POINT('',(0.,0.,0.));
#1687=CARTESIAN_POINT('Origin',(-36.0000000000002,20.,22.8));
#1688=CARTESIAN_POINT('',(-31.1000000000002,20.,23.));
#1689=CARTESIAN_POINT('Origin',(-36.0000000000002,20.,23.));
#1690=CARTESIAN_POINT('',(-31.3000000000002,20.,22.8));
#1691=CARTESIAN_POINT('Origin',(-31.1000000000002,20.,22.8));
#1692=CARTESIAN_POINT('',(-40.7000000000002,20.,22.8));
#1693=CARTESIAN_POINT('Origin',(-36.0000000000002,20.,22.8));
#1694=CARTESIAN_POINT('Origin',(-36.0000000000002,20.,22.8));
#1695=CARTESIAN_POINT('Origin',(-35.9999999999998,20.,23.));
#1696=CARTESIAN_POINT('',(-42.2999999999998,20.,23.));
#1697=CARTESIAN_POINT('Origin',(-35.9999999999998,20.,23.));
#1698=CARTESIAN_POINT('Origin',(-35.9999999999998,20.,3.0000000000003));
#1699=CARTESIAN_POINT('',(-40.6999999999998,20.,2.50000000000012));
#1700=CARTESIAN_POINT('',(-31.2999999999998,20.,2.50000000000012));
#1701=CARTESIAN_POINT('Origin',(-35.9999999999998,20.,2.50000000000012));
#1702=CARTESIAN_POINT('',(-40.6999999999998,20.,3.00000000000022));
#1703=CARTESIAN_POINT('Origin',(-35.9999999999998,20.,2.50000000000012));
#1704=CARTESIAN_POINT('Origin',(-35.9999999999998,20.,22.8));
#1705=CARTESIAN_POINT('',(-42.4999999999998,20.,22.8));
#1706=CARTESIAN_POINT('Origin',(-42.2999999999998,20.,22.8));
#1707=CARTESIAN_POINT('',(-29.4999999999999,20.,22.8));
#1708=CARTESIAN_POINT('Origin',(-35.9999999999998,20.,22.8));
#1709=CARTESIAN_POINT('Origin',(-35.9999999999998,20.,22.8));
#1710=CARTESIAN_POINT('Origin',(-35.9999999999998,20.,5.));
#1711=CARTESIAN_POINT('',(-29.4999999999999,20.,6.5));
#1712=CARTESIAN_POINT('',(-29.4999999999999,20.,5.));
#1713=CARTESIAN_POINT('Origin',(-35.9999999999998,20.,6.5));
#1714=CARTESIAN_POINT('Origin',(-35.9999999999998,20.,6.5));
#1715=CARTESIAN_POINT('',(-27.9999999999999,20.,5.));
#1716=CARTESIAN_POINT('Origin',(-27.9999999999999,20.,6.5));
#1717=CARTESIAN_POINT('',(-35.5000035623044,27.984359934415,5.));
#1718=CARTESIAN_POINT('Origin',(-35.9999999999998,20.,5.));
#1719=CARTESIAN_POINT('',(-35.4999968996316,12.0156404828175,5.));
#1720=CARTESIAN_POINT('Ctrl Pts',(-35.5000035623116,27.9843599344145,5.));
#1721=CARTESIAN_POINT('Ctrl Pts',(-36.1478944122514,27.9437871830275,5.00000000000005));
#1722=CARTESIAN_POINT('Ctrl Pts',(-36.7897784814754,27.8244230895997,5.00661624820255));
#1723=CARTESIAN_POINT('Ctrl Pts',(-38.3937981531664,27.3173696410011,5.04050306291069));
#1724=CARTESIAN_POINT('Ctrl Pts',(-39.3065704349787,26.8200772412854,5.07752618850099));
#1725=CARTESIAN_POINT('Ctrl Pts',(-40.9109099043994,25.4926670401142,5.17160045334303));
#1726=CARTESIAN_POINT('Ctrl Pts',(-41.5814493205977,24.6682121521882,5.22824437913309));
#1727=CARTESIAN_POINT('Ctrl Pts',(-42.3705753727492,23.1748752669845,5.30687207328093));
#1728=CARTESIAN_POINT('Ctrl Pts',(-42.5998509176145,22.5783828587433,5.33315310189551));
#1729=CARTESIAN_POINT('Ctrl Pts',(-42.918006903985,21.3199118801896,5.37117257056211));
#1730=CARTESIAN_POINT('Ctrl Pts',(-43.0000004964309,20.6614031737664,5.38196556722891));
#1731=CARTESIAN_POINT('Ctrl Pts',(-43.000000461936,20.,5.38196559808203));
#1732=CARTESIAN_POINT('Ctrl Pts',(-43.0000004084232,18.9739484427895,5.38196564594526));
#1733=CARTESIAN_POINT('Ctrl Pts',(-42.8026971475586,17.9583950839082,5.35520600828056));
#1734=CARTESIAN_POINT('Ctrl Pts',(-42.0377929487318,16.0616474865831,5.27169742424081));
#1735=CARTESIAN_POINT('Ctrl Pts',(-41.4786918813447,15.1971569797044,5.21737147214816));
#1736=CARTESIAN_POINT('Ctrl Pts',(-40.0522955767238,13.7106509784223,5.11654347518108));
#1737=CARTESIAN_POINT('Ctrl Pts',(-39.1924976254403,13.1075059547246,5.07134638753531));
#1738=CARTESIAN_POINT('Ctrl Pts',(-37.3735117811748,12.3015370522357,5.01424185557323));
#1739=CARTESIAN_POINT('Ctrl Pts',(-36.4454382574578,12.0748458937522,5.00000000000004));
#1740=CARTESIAN_POINT('Ctrl Pts',(-35.499996899636,12.0156404828178,5.));
#1741=CARTESIAN_POINT('Origin',(-35.9999999999998,20.,5.));
#1742=CARTESIAN_POINT('Origin',(-15.500000230968,19.7500000223517,5.));
#1743=CARTESIAN_POINT('',(-35.000000461936,12.0000004172325,5.));
#1744=CARTESIAN_POINT('Origin',(-35.000000461936,20.0000004172325,5.));
#1745=CARTESIAN_POINT('',(-33.000000461936,12.0000004172325,5.));
#1746=CARTESIAN_POINT('',(-31.000000461936,12.0000004172325,5.));
#1747=CARTESIAN_POINT('',(-31.000000461936,10.0000004172325,5.));
#1748=CARTESIAN_POINT('Origin',(-33.000000461936,10.0000004172325,5.));
#1749=CARTESIAN_POINT('',(-31.000000461936,1.,5.));
#1750=CARTESIAN_POINT('',(-31.000000461936,39.5000000447035,5.));
#1751=CARTESIAN_POINT('',(-30.000000461936,0.,5.));
#1752=CARTESIAN_POINT('Origin',(-30.000000461936,1.,5.));
#1753=CARTESIAN_POINT('',(-12.5,0.,5.));
#1754=CARTESIAN_POINT('',(0.,0.,5.));
#1755=CARTESIAN_POINT('',(-12.5,3.00000004470348,5.));
#1756=CARTESIAN_POINT('',(-12.5,11.3750000335276,5.));
#1757=CARTESIAN_POINT('',(-25.000000461936,3.00000004470348,5.));
#1758=CARTESIAN_POINT('',(-27.500000461936,3.00000004470348,5.));
#1759=CARTESIAN_POINT('',(-27.500000461936,5.50000004470348,5.));
#1760=CARTESIAN_POINT('Origin',(-25.000000461936,5.50000004470348,5.));
#1761=CARTESIAN_POINT('',(-27.500000461936,34.5000000447035,5.));
#1762=CARTESIAN_POINT('',(-27.500000461936,3.00000004470348,5.));
#1763=CARTESIAN_POINT('',(-27.,35.3660257151866,5.));
#1764=CARTESIAN_POINT('Origin',(-26.500000461936,34.5000000447035,5.));
#1765=CARTESIAN_POINT('',(-27.,39.5000000447035,5.));
#1766=CARTESIAN_POINT('',(-27.,29.6250000335276,5.));
#1767=CARTESIAN_POINT('',(-30.000000461936,39.5000000447035,5.));
#1768=CARTESIAN_POINT('',(-27.500000461936,39.5000000447035,5.));
#1769=CARTESIAN_POINT('',(-31.000000461936,38.5000000447035,5.));
#1770=CARTESIAN_POINT('Origin',(-30.000000461936,38.5000000447035,5.));
#1771=CARTESIAN_POINT('',(-31.000000461936,30.0000004172325,5.));
#1772=CARTESIAN_POINT('',(-31.000000461936,39.5000000447035,5.));
#1773=CARTESIAN_POINT('',(-33.000000461936,28.0000004172325,5.));
#1774=CARTESIAN_POINT('Origin',(-33.000000461936,30.0000004172325,5.));
#1775=CARTESIAN_POINT('',(-35.000000461936,28.0000004172325,5.));
#1776=CARTESIAN_POINT('',(-31.000000461936,28.0000004172325,5.));
#1777=CARTESIAN_POINT('Origin',(-35.000000461936,20.0000004172325,5.));
#1778=CARTESIAN_POINT('Origin',(-35.000000461936,20.0000004172325,1.25));
#1779=CARTESIAN_POINT('',(-35.000000461936,28.0000004172325,0.));
#1780=CARTESIAN_POINT('',(-35.000000461936,28.0000004172325,3.75));
#1781=CARTESIAN_POINT('',(-35.000000461936,12.0000004172325,0.));
#1782=CARTESIAN_POINT('Origin',(-35.000000461936,20.0000004172325,0.));
#1783=CARTESIAN_POINT('',(-35.000000461936,12.0000004172325,1.25));
#1784=CARTESIAN_POINT('Origin',(-31.000000461936,12.0000004172325,0.));
#1785=CARTESIAN_POINT('',(-33.000000461936,12.0000004172325,0.));
#1786=CARTESIAN_POINT('',(-31.000000461936,12.0000004172325,0.));
#1787=CARTESIAN_POINT('',(-33.000000461936,12.0000004172325,0.));
#1788=CARTESIAN_POINT('Origin',(-31.000000461936,28.0000004172325,5.));
#1789=CARTESIAN_POINT('',(-33.000000461936,28.0000004172325,0.));
#1790=CARTESIAN_POINT('',(-33.000000461936,28.0000004172325,2.5));
#1791=CARTESIAN_POINT('',(-31.000000461936,28.0000004172325,0.));
#1792=CARTESIAN_POINT('Origin',(-35.9999999999998,20.,2.));
#1793=CARTESIAN_POINT('',(-33.9999999999998,20.,2.));
#1794=CARTESIAN_POINT('Origin',(-35.9999999999998,20.,2.));
#1795=CARTESIAN_POINT('',(-33.9999999999998,20.,0.));
#1796=CARTESIAN_POINT('',(-33.9999999999998,20.,2.));
#1797=CARTESIAN_POINT('Origin',(-35.9999999999998,20.,0.));
#1798=CARTESIAN_POINT('Origin',(-35.9999999999998,20.,2.50000000000012));
#1799=CARTESIAN_POINT('',(-31.7999999999998,20.,2.));
#1800=CARTESIAN_POINT('Origin',(-35.9999999999998,20.,2.));
#1801=CARTESIAN_POINT('Origin',(-31.7999999999998,20.,2.50000000000012));
#1802=CARTESIAN_POINT('Origin',(-43.000000461936,26.0000004172325,2.));
#1803=CARTESIAN_POINT('Origin',(-33.000000461936,10.0000004172325,0.));
#1804=CARTESIAN_POINT('',(-31.000000461936,10.0000004172325,0.));
#1805=CARTESIAN_POINT('Origin',(-33.000000461936,10.0000004172325,0.));
#1806=CARTESIAN_POINT('',(-31.000000461936,10.0000004172325,0.));
#1807=CARTESIAN_POINT('Origin',(-15.500000230968,19.7500000223517,0.));
#1808=CARTESIAN_POINT('',(-31.000000461936,30.0000004172325,0.));
#1809=CARTESIAN_POINT('Origin',(-33.000000461936,30.0000004172325,0.));
#1810=CARTESIAN_POINT('',(-31.000000461936,38.5000000447035,0.));
#1811=CARTESIAN_POINT('',(-31.000000461936,39.5000000447035,0.));
#1812=CARTESIAN_POINT('',(-30.000000461936,39.5000000447035,0.));
#1813=CARTESIAN_POINT('Origin',(-30.000000461936,38.5000000447035,0.));
#1814=CARTESIAN_POINT('',(-25.7320511800979,39.5000000447035,0.));
#1815=CARTESIAN_POINT('',(-27.500000461936,39.5000000447035,0.));
#1816=CARTESIAN_POINT('',(-24.8660257763135,40.0000000447035,0.));
#1817=CARTESIAN_POINT('Origin',(-25.7320511800979,40.5000000447035,0.));
#1818=CARTESIAN_POINT('',(-24.000000372529,40.5000000447035,0.));
#1819=CARTESIAN_POINT('Origin',(-24.000000372529,39.5000000447035,0.));
#1820=CARTESIAN_POINT('',(-20.000000372529,40.5000000447035,0.));
#1821=CARTESIAN_POINT('',(-23.000000372529,40.5000000447035,0.));
#1822=CARTESIAN_POINT('',(-19.000000372529,39.5000000447035,0.));
#1823=CARTESIAN_POINT('Origin',(-20.000000372529,39.5000000447035,0.));
#1824=CARTESIAN_POINT('',(-1.,39.5000000447035,0.));
#1825=CARTESIAN_POINT('',(-27.500000461936,39.5000000447035,0.));
#1826=CARTESIAN_POINT('',(-1.,35.5000000447035,0.));
#1827=CARTESIAN_POINT('',(-1.,27.6250000335276,0.));
#1828=CARTESIAN_POINT('',(-26.500000461936,35.5000000447035,0.));
#1829=CARTESIAN_POINT('',(0.,35.5000000447035,0.));
#1830=CARTESIAN_POINT('',(-27.500000461936,34.5000000447035,0.));
#1831=CARTESIAN_POINT('Origin',(-26.500000461936,34.5000000447035,0.));
#1832=CARTESIAN_POINT('',(-27.500000461936,5.50000004470348,0.));
#1833=CARTESIAN_POINT('',(-27.500000461936,3.00000004470348,0.));
#1834=CARTESIAN_POINT('',(-25.000000461936,3.00000004470348,0.));
#1835=CARTESIAN_POINT('Origin',(-25.000000461936,5.50000004470348,0.));
#1836=CARTESIAN_POINT('',(-1.,3.00000004470348,0.));
#1837=CARTESIAN_POINT('',(-27.500000461936,3.00000004470348,0.));
#1838=CARTESIAN_POINT('',(-1.,0.,0.));
#1839=CARTESIAN_POINT('',(-1.,9.87500001117587,0.));
#1840=CARTESIAN_POINT('',(-30.000000461936,0.,0.));
#1841=CARTESIAN_POINT('',(0.,0.,0.));
#1842=CARTESIAN_POINT('',(-31.000000461936,1.,0.));
#1843=CARTESIAN_POINT('Origin',(-30.000000461936,1.,0.));
#1844=CARTESIAN_POINT('',(-31.000000461936,39.5000000447035,0.));
#1845=CARTESIAN_POINT('Origin',(-33.000000461936,30.0000004172325,2.5));
#1846=CARTESIAN_POINT('',(-31.000000461936,30.0000004172325,2.5));
#1847=CARTESIAN_POINT('Origin',(-31.000000461936,39.5000000447035,0.));
#1848=CARTESIAN_POINT('',(-31.000000461936,1.,0.));
#1849=CARTESIAN_POINT('Origin',(-31.000000461936,39.5000000447035,0.));
#1850=CARTESIAN_POINT('',(-31.000000461936,38.5000000447035,0.));
#1851=CARTESIAN_POINT('Origin',(-25.7320511800979,40.5000000447035,2.375));
#1852=CARTESIAN_POINT('',(-24.8660257763135,40.0000000447035,9.5));
#1853=CARTESIAN_POINT('',(-25.0000000429083,39.8187503602709,9.5));
#1854=CARTESIAN_POINT('Origin',(-25.7320511800979,40.5000000447035,9.5));
#1855=CARTESIAN_POINT('',(-24.8660257763135,40.0000000447035,2.375));
#1856=CARTESIAN_POINT('',(-25.7320511800979,39.5000000447035,9.1812496383245));
#1857=CARTESIAN_POINT('',(-25.7320511800979,39.5000000447035,2.375));
#1858=CARTESIAN_POINT('Ctrl Pts',(-25.7320511800973,39.5000000447035,9.18124963832517));
#1859=CARTESIAN_POINT('Ctrl Pts',(-25.7291357431037,39.5000000447035,9.18438248269171));
#1860=CARTESIAN_POINT('Ctrl Pts',(-25.7262014437233,39.5000119588674,9.1874952641931));
#1861=CARTESIAN_POINT('Ctrl Pts',(-25.6650319804078,39.5005669812291,9.25155780720969));
#1862=CARTESIAN_POINT('Ctrl Pts',(-25.5995283092209,39.5062886580188,9.30453045974099));
#1863=CARTESIAN_POINT('Ctrl Pts',(-25.4674960169063,39.5335131076731,9.3870734251565));
#1864=CARTESIAN_POINT('Ctrl Pts',(-25.3962598532458,39.5549266733716,9.42114550877548));
#1865=CARTESIAN_POINT('Ctrl Pts',(-25.2556429199114,39.6174159451689,9.46962755384996));
#1866=CARTESIAN_POINT('Ctrl Pts',(-25.1864247693171,39.6586603841432,9.48429107720443));
#1867=CARTESIAN_POINT('Ctrl Pts',(-25.082206259155,39.7378493590518,9.4976402901023));
#1868=CARTESIAN_POINT('Ctrl Pts',(-25.0394431210231,39.776365973389,9.49999999830758));
#1869=CARTESIAN_POINT('Ctrl Pts',(-25.0000000429078,39.8187503602715,9.5));
#1870=CARTESIAN_POINT('Origin',(-24.000000372529,39.5000000447035,2.375));
#1871=CARTESIAN_POINT('',(-24.000000372529,40.5000000447035,9.5));
#1872=CARTESIAN_POINT('Origin',(-24.000000372529,39.5000000447035,9.5));
#1873=CARTESIAN_POINT('',(-24.000000372529,40.5000000447035,2.375));
#1874=CARTESIAN_POINT('Origin',(-24.000000372529,40.5000000447035,4.75));
#1875=CARTESIAN_POINT('',(-20.000000372529,40.5000000447035,9.5));
#1876=CARTESIAN_POINT('',(-23.000000372529,40.5000000447035,9.5));
#1877=CARTESIAN_POINT('',(-20.000000372529,40.5000000447035,7.125));
#1878=CARTESIAN_POINT('Origin',(-13.,37.5000000447035,9.5));
#1879=CARTESIAN_POINT('',(-25.,35.5000000447035,9.5));
#1880=CARTESIAN_POINT('',(-25.,38.5000000447035,9.5));
#1881=CARTESIAN_POINT('',(-1.,35.5000000447035,9.5));
#1882=CARTESIAN_POINT('',(-26.,35.5000000447035,9.5));
#1883=CARTESIAN_POINT('',(-1.,39.5000000447035,9.5));
#1884=CARTESIAN_POINT('',(-1.,36.5000000447035,9.5));
#1885=CARTESIAN_POINT('',(-19.000000372529,39.5000000447035,9.5));
#1886=CARTESIAN_POINT('',(0.,39.5000000447035,9.5));
#1887=CARTESIAN_POINT('Origin',(-20.000000372529,39.5000000447035,9.5));
#1888=CARTESIAN_POINT('Origin',(-20.000000372529,39.5000000447035,7.125));
#1889=CARTESIAN_POINT('',(-19.000000372529,39.5000000447035,6.72977072519443));
#1890=CARTESIAN_POINT('',(-19.000000372529,39.5000000447035,4.75));
#1891=CARTESIAN_POINT('',(-19.000000372529,39.5000000447035,2.40863520864432));
#1892=CARTESIAN_POINT('',(-19.000000372529,39.5000000447035,4.75));
#1893=CARTESIAN_POINT('',(-19.000000372529,39.5000000447035,4.75));
#1894=CARTESIAN_POINT('Origin',(-23.000000372529,39.5000000447035,9.5));
#1895=CARTESIAN_POINT('',(-20.1656860165598,39.5000000447035,2.47233104261629));
#1896=CARTESIAN_POINT('',(-10.0455126917579,39.5000000447035,1.91934072042687));
#1897=CARTESIAN_POINT('',(-20.1656860165598,39.5000000447035,6.66607489122246));
#1898=CARTESIAN_POINT('',(-4.31941667015654,39.5000000447035,7.53195270873894));
#1899=CARTESIAN_POINT('Origin',(-20.0511079511655,39.5000000447035,4.56920296691938));
#1900=CARTESIAN_POINT('Origin',(0.,39.5000000447035,0.));
#1901=CARTESIAN_POINT('',(-8.3320436320661,39.5000000447035,1.82571269875537));
#1902=CARTESIAN_POINT('',(-10.0455126917579,39.5000000447035,1.91934072042687));
#1903=CARTESIAN_POINT('',(-6.00110795116554,39.5000000447035,0.969202966919374));
#1904=CARTESIAN_POINT('Origin',(-6.00110795116554,39.5000000447035,4.56920296691937));
#1905=CARTESIAN_POINT('',(-8.33204363206611,39.5000000447035,7.31269323508338));
#1906=CARTESIAN_POINT('Origin',(-6.00110795116554,39.5000000447035,4.56920296691937));
#1907=CARTESIAN_POINT('',(-4.31941667015654,39.5000000447035,7.53195270873894));
#1908=CARTESIAN_POINT('',(0.,39.5000000447035,8.5));
#1909=CARTESIAN_POINT('Origin',(-1.,39.5000000447035,8.5));
#1910=CARTESIAN_POINT('',(0.,39.5000000447035,1.));
#1911=CARTESIAN_POINT('',(0.,39.5000000447035,0.));
#1912=CARTESIAN_POINT('Origin',(-1.,39.5000000447035,1.));
#1913=CARTESIAN_POINT('Origin',(0.,39.5000000447035,0.));
#1914=CARTESIAN_POINT('',(-30.000000461936,39.5000000447035,0.));
#1915=CARTESIAN_POINT('',(-26.,39.5000000447035,6.));
#1916=CARTESIAN_POINT('Origin',(-27.,39.5000000447035,6.));
#1917=CARTESIAN_POINT('',(-26.,39.5000000447035,8.5));
#1918=CARTESIAN_POINT('',(-26.,39.5000000447035,5.));
#1919=CARTESIAN_POINT('Origin',(-25.,39.5000000447035,8.5));
#1920=CARTESIAN_POINT('Origin',(-18.4511079511655,39.5000000447035,4.56920296691937));
#1921=CARTESIAN_POINT('',(-18.4511079511655,37.0035012297997,3.96920296691936));
#1922=CARTESIAN_POINT('Origin',(-18.4511079511655,37.0035012297997,4.56920296691937));
#1923=CARTESIAN_POINT('',(-18.4511079511655,37.0000000447035,3.96920296691936));
#1924=CARTESIAN_POINT('',(-18.4511079511655,39.5000000447035,3.96920296691936));
#1925=CARTESIAN_POINT('Origin',(-18.4511079511655,37.0000000447035,4.56920296691937));
#1926=CARTESIAN_POINT('Origin',(0.,37.0000000447035,0.));
#1927=CARTESIAN_POINT('Origin',(-14.4511079511655,39.5000000447035,4.56920296691937));
#1928=CARTESIAN_POINT('',(-14.4511079511655,37.0035012297997,3.96920296691936));
#1929=CARTESIAN_POINT('Origin',(-14.4511079511655,37.0035012297997,4.56920296691937));
#1930=CARTESIAN_POINT('',(-14.4511079511655,37.0000000447035,3.96920296691936));
#1931=CARTESIAN_POINT('',(-14.4511079511655,39.5000000447035,3.96920296691936));
#1932=CARTESIAN_POINT('Origin',(-14.4511079511655,37.0000000447035,4.56920296691937));
#1933=CARTESIAN_POINT('Origin',(0.,37.0000000447035,0.));
#1934=CARTESIAN_POINT('Origin',(-10.4511079511655,39.5000000447035,4.56920296691937));
#1935=CARTESIAN_POINT('',(-10.4511079511655,37.0035012297997,3.96920296691936));
#1936=CARTESIAN_POINT('Origin',(-10.4511079511655,37.0035012297997,4.56920296691937));
#1937=CARTESIAN_POINT('',(-10.4511079511655,37.0000000447035,3.96920296691936));
#1938=CARTESIAN_POINT('',(-10.4511079511655,39.5000000447035,3.96920296691936));
#1939=CARTESIAN_POINT('Origin',(-10.4511079511655,37.0000000447035,4.56920296691937));
#1940=CARTESIAN_POINT('Origin',(0.,37.0000000447035,0.));
#1941=CARTESIAN_POINT('Origin',(-12.4511079511655,39.5000000447035,4.56920296691937));
#1942=CARTESIAN_POINT('',(-12.4511079511655,37.0035012297997,3.96920296691936));
#1943=CARTESIAN_POINT('Origin',(-12.4511079511655,37.0035012297997,4.56920296691937));
#1944=CARTESIAN_POINT('',(-12.4511079511655,37.0000000447035,3.96920296691936));
#1945=CARTESIAN_POINT('',(-12.4511079511655,39.5000000447035,3.96920296691936));
#1946=CARTESIAN_POINT('Origin',(-12.4511079511655,37.0000000447035,4.56920296691937));
#1947=CARTESIAN_POINT('Origin',(0.,37.0000000447035,0.));
#1948=CARTESIAN_POINT('Origin',(-16.4511079511655,39.5000000447035,4.56920296691937));
#1949=CARTESIAN_POINT('',(-16.4511079511655,37.0035012297997,3.96920296691936));
#1950=CARTESIAN_POINT('Origin',(-16.4511079511655,37.0035012297997,4.56920296691937));
#1951=CARTESIAN_POINT('',(-16.4511079511655,37.0000000447035,3.96920296691936));
#1952=CARTESIAN_POINT('',(-16.4511079511655,39.5000000447035,3.96920296691936));
#1953=CARTESIAN_POINT('Origin',(-16.4511079511655,37.0000000447035,4.56920296691937));
#1954=CARTESIAN_POINT('Origin',(0.,37.0000000447035,0.));
#1955=CARTESIAN_POINT('Origin',(-20.4511079511655,39.5000000447035,4.56920296691937));
#1956=CARTESIAN_POINT('',(-20.4511079511655,37.0035012297997,3.96920296691936));
#1957=CARTESIAN_POINT('Origin',(-20.4511079511655,37.0035012297997,4.56920296691937));
#1958=CARTESIAN_POINT('',(-20.4511079511655,37.0000000447035,3.96920296691936));
#1959=CARTESIAN_POINT('',(-20.4511079511655,39.5000000447035,3.96920296691936));
#1960=CARTESIAN_POINT('Origin',(-20.4511079511655,37.0000000447035,4.56920296691937));
#1961=CARTESIAN_POINT('Origin',(0.,37.0000000447035,0.));
#1962=CARTESIAN_POINT('Origin',(-27.500000461936,35.5000000447035,0.));
#1963=CARTESIAN_POINT('',(0.,35.5000000447035,1.));
#1964=CARTESIAN_POINT('Origin',(-1.,35.5000000447035,1.));
#1965=CARTESIAN_POINT('',(0.,35.5000000447035,8.5));
#1966=CARTESIAN_POINT('',(0.,35.5000000447035,0.));
#1967=CARTESIAN_POINT('Origin',(-1.,35.5000000447035,8.5));
#1968=CARTESIAN_POINT('',(-26.,35.5000000447035,8.5));
#1969=CARTESIAN_POINT('Origin',(-25.,35.5000000447035,8.5));
#1970=CARTESIAN_POINT('',(-26.,35.5000000447035,6.));
#1971=CARTESIAN_POINT('',(-26.,35.5000000447035,5.));
#1972=CARTESIAN_POINT('',(-26.5000004619361,35.5000000447035,5.13397432951681));
#1973=CARTESIAN_POINT('Origin',(-27.,35.5000000447035,6.));
#1974=CARTESIAN_POINT('',(-26.500000461936,35.5000000447035,0.));
#1975=CARTESIAN_POINT('',(-6.00110795116554,35.5000000447035,0.969202966919374));
#1976=CARTESIAN_POINT('Origin',(-6.00110795116554,35.5000000447035,4.56920296691937));
#1977=CARTESIAN_POINT('Origin',(-12.5,11.3750000335276,6.));
#1978=CARTESIAN_POINT('',(-11.5,0.,6.));
#1979=CARTESIAN_POINT('Origin',(-12.5,0.,6.));
#1980=CARTESIAN_POINT('',(-11.5,3.00000004470348,6.));
#1981=CARTESIAN_POINT('',(-11.5,11.3750000335276,6.));
#1982=CARTESIAN_POINT('Origin',(-12.5,3.00000004470348,6.));
#1983=CARTESIAN_POINT('Origin',(-11.5,3.00000004470348,5.));
#1984=CARTESIAN_POINT('',(-11.5,0.,8.));
#1985=CARTESIAN_POINT('',(-11.5,0.,5.));
#1986=CARTESIAN_POINT('',(-11.5,3.00000004470348,8.));
#1987=CARTESIAN_POINT('',(-11.5,2.25000003352761,8.));
#1988=CARTESIAN_POINT('',(-11.5,3.00000004470348,5.));
#1989=CARTESIAN_POINT('Origin',(-10.5,2.25000003352761,8.));
#1990=CARTESIAN_POINT('',(-10.5,0.,9.));
#1991=CARTESIAN_POINT('Origin',(-10.5,0.,8.));
#1992=CARTESIAN_POINT('',(-10.5,3.00000004470348,9.));
#1993=CARTESIAN_POINT('',(-10.5,2.25000003352761,9.));
#1994=CARTESIAN_POINT('Origin',(-10.5,3.00000004470348,8.));
#1995=CARTESIAN_POINT('Origin',(0.,3.00000004470348,0.));
#1996=CARTESIAN_POINT('',(-1.,3.00000004470348,9.));
#1997=CARTESIAN_POINT('',(0.,3.00000004470348,9.));
#1998=CARTESIAN_POINT('',(0.,3.00000004470348,8.));
#1999=CARTESIAN_POINT('Origin',(-1.,3.00000004470348,8.));
#2000=CARTESIAN_POINT('',(0.,3.00000004470348,1.));
#2001=CARTESIAN_POINT('',(0.,3.00000004470348,0.));
#2002=CARTESIAN_POINT('Origin',(-1.,3.00000004470348,1.));
#2003=CARTESIAN_POINT('',(-25.000000461936,3.00000004470348,0.));
#2004=CARTESIAN_POINT('',(-7.9575,3.00000004470348,4.5));
#2005=CARTESIAN_POINT('Origin',(-6.,3.00000004470348,4.5));
#2006=CARTESIAN_POINT('Origin',(-5.75,1.50000002235174,9.));
#2007=CARTESIAN_POINT('',(-1.,0.,9.));
#2008=CARTESIAN_POINT('',(-11.5,0.,9.));
#2009=CARTESIAN_POINT('',(-1.,0.750000011175871,9.));
#2010=CARTESIAN_POINT('Origin',(-1.,0.750000011175871,8.));
#2011=CARTESIAN_POINT('',(0.,0.,8.));
#2012=CARTESIAN_POINT('Origin',(-1.,0.,8.));
#2013=CARTESIAN_POINT('',(0.,0.750000011175871,8.));
#2014=CARTESIAN_POINT('Origin',(-1.,9.87500001117587,1.));
#2015=CARTESIAN_POINT('',(0.,0.,1.));
#2016=CARTESIAN_POINT('Origin',(-1.,0.,1.));
#2017=CARTESIAN_POINT('',(0.,9.87500001117587,1.));
#2018=CARTESIAN_POINT('Origin',(-1.,27.6250000335276,1.));
#2019=CARTESIAN_POINT('',(0.,27.6250000335276,1.));
#2020=CARTESIAN_POINT('Origin',(0.,35.5000000447035,0.));
#2021=CARTESIAN_POINT('',(0.,36.5000000447035,8.5));
#2022=CARTESIAN_POINT('Origin',(-1.,36.5000000447035,8.5));
#2023=CARTESIAN_POINT('Origin',(-25.,38.5000000447035,8.5));
#2024=CARTESIAN_POINT('',(-26.,38.5000000447035,8.5));
#2025=CARTESIAN_POINT('Origin',(-26.,39.5000000447035,5.));
#2026=CARTESIAN_POINT('',(-26.,29.6250000335276,6.));
#2027=CARTESIAN_POINT('Origin',(-27.,29.6250000335276,6.));
#2028=CARTESIAN_POINT('Ctrl Pts',(-26.9999999999998,35.3660257151868,5.));
#2029=CARTESIAN_POINT('Ctrl Pts',(-26.9941337770015,35.3694125764419,5.));
#2030=CARTESIAN_POINT('Ctrl Pts',(-26.9882865685944,35.3727089190683,5.0000516805783));
#2031=CARTESIAN_POINT('Ctrl Pts',(-26.9090854025398,35.4163344084224,5.00144031163456));
#2032=CARTESIAN_POINT('Ctrl Pts',(-26.8247272539898,35.4497738428563,5.01163102699167));
#2033=CARTESIAN_POINT('Ctrl Pts',(-26.6564100868645,35.4914907180366,5.05684585874224));
#2034=CARTESIAN_POINT('Ctrl Pts',(-26.5725649260257,35.5000000447035,5.09207926824869));
#2035=CARTESIAN_POINT('Ctrl Pts',(-26.5000004619361,35.5000000447035,5.1339743295168));
#2036=CARTESIAN_POINT('Origin',(-30.000000461936,38.5000000447035,0.));
#2037=CARTESIAN_POINT('Origin',(-30.000000461936,1.,0.));
#2038=CARTESIAN_POINT('',(-30.000000461936,0.,0.));
#2039=CARTESIAN_POINT('Origin',(-25.000000461936,5.50000004470348,0.));
#2040=CARTESIAN_POINT('',(-27.500000461936,5.50000004470348,0.));
#2041=CARTESIAN_POINT('Origin',(-27.500000461936,3.00000004470348,0.));
#2042=CARTESIAN_POINT('',(-27.500000461936,34.5000000447035,0.));
#2043=CARTESIAN_POINT('Origin',(-26.500000461936,34.5000000447035,0.));
#2044=CARTESIAN_POINT('Origin',(-6.,0.,4.5));
#2045=CARTESIAN_POINT('',(-7.9575,0.,4.5));
#2046=CARTESIAN_POINT('Origin',(-6.,0.,4.5));
#2047=CARTESIAN_POINT('',(-7.9575,0.,4.5));
#2048=CARTESIAN_POINT('Origin',(0.,0.,0.));
#2049=CARTESIAN_POINT('',(0.,0.,0.));
#2050=CARTESIAN_POINT('Origin',(-31.000000461936,0.,0.));
#2051=CARTESIAN_POINT('Origin',(-6.00110795116554,37.0035012297997,4.56920296691937));
#2052=CARTESIAN_POINT('',(-8.33204363206389,37.0035012297997,7.31269323508416));
#2053=CARTESIAN_POINT('',(-8.3320436320639,37.0035012297997,1.82571269875458));
#2054=CARTESIAN_POINT('Origin',(-6.00110795116554,37.0035012297997,4.56920296691937));
#2055=CARTESIAN_POINT('',(-20.1656860165598,37.0035012297997,2.47233104261629));
#2056=CARTESIAN_POINT('',(-13.1615987455424,37.0035012297997,2.0896110681322));
#2057=CARTESIAN_POINT('',(-20.1656860165598,37.0035012297997,6.66607489122246));
#2058=CARTESIAN_POINT('Origin',(-20.0511079511655,37.0035012297997,4.56920296691938));
#2059=CARTESIAN_POINT('',(-7.18657386374002,37.0035012297997,7.37528442556223));
#2060=CARTESIAN_POINT('Origin',(-6.00110795116554,38.0035012297997,4.56920296691937));
#2061=CARTESIAN_POINT('',(-6.00110795116554,38.0035012297997,0.969202966919374));
#2062=CARTESIAN_POINT('',(-8.3320436320639,38.0035012297997,1.82571269875458));
#2063=CARTESIAN_POINT('',(-8.33204363206389,38.0035012297997,7.31269323508416));
#2064=CARTESIAN_POINT('Origin',(-8.2156362529551,38.0035012297997,7.31905401093381));
#2065=CARTESIAN_POINT('',(-20.1656860165598,39.4035012297997,6.66607489122246));
#2066=CARTESIAN_POINT('Origin',(-20.0511079511655,38.0035012297997,4.56920296691938));
#2067=CARTESIAN_POINT('',(-20.1656860165598,39.4035012297997,2.47233104261629));
#2068=CARTESIAN_POINT('Origin',(-20.1656860165598,38.0035012297997,2.47233104261629));
#2069=UNCERTAINTY_MEASURE_WITH_UNIT(LENGTH_MEASURE(0.01),#2073,
'DISTANCE_ACCURACY_VALUE',
'Maximum model space distance between geometric entities at asserted c
onnectivities');
#2070=UNCERTAINTY_MEASURE_WITH_UNIT(LENGTH_MEASURE(0.01),#2073,
'DISTANCE_ACCURACY_VALUE',
'Maximum model space distance between geometric entities at asserted c
onnectivities');
#2071=(
GEOMETRIC_REPRESENTATION_CONTEXT(3)
GLOBAL_UNCERTAINTY_ASSIGNED_CONTEXT((#2069))
GLOBAL_UNIT_ASSIGNED_CONTEXT((#2073,#2074,#2075))
REPRESENTATION_CONTEXT('','3D')
);
#2072=(
GEOMETRIC_REPRESENTATION_CONTEXT(3)
GLOBAL_UNCERTAINTY_ASSIGNED_CONTEXT((#2070))
GLOBAL_UNIT_ASSIGNED_CONTEXT((#2073,#2074,#2075))
REPRESENTATION_CONTEXT('','3D')
);
#2073=(
LENGTH_UNIT()
NAMED_UNIT(*)
SI_UNIT(.MILLI.,.METRE.)
);
#2074=(
NAMED_UNIT(*)
PLANE_ANGLE_UNIT()
SI_UNIT($,.RADIAN.)
);
#2075=(
NAMED_UNIT(*)
SI_UNIT($,.STERADIAN.)
SOLID_ANGLE_UNIT()
);
#2076=SHAPE_DEFINITION_REPRESENTATION(#2077,#2078);
#2077=PRODUCT_DEFINITION_SHAPE('',$,#2080);
#2078=SHAPE_REPRESENTATION('',(#1173),#2071);
#2079=PRODUCT_DEFINITION_CONTEXT('part definition',#2084,'design');
#2080=PRODUCT_DEFINITION('Upper support','Upper support v6',#2081,#2079);
#2081=PRODUCT_DEFINITION_FORMATION('',$,#2086);
#2082=PRODUCT_RELATED_PRODUCT_CATEGORY('Upper support v6',
'Upper support v6',(#2086));
#2083=APPLICATION_PROTOCOL_DEFINITION('international standard',
'automotive_design',2009,#2084);
#2084=APPLICATION_CONTEXT(
'Core Data for Automotive Mechanical Design Process');
#2085=PRODUCT_CONTEXT('part definition',#2084,'mechanical');
#2086=PRODUCT('Upper support','Upper support v6',$,(#2085));
#2087=PRESENTATION_STYLE_ASSIGNMENT((#2088));
#2088=SURFACE_STYLE_USAGE(.BOTH.,#2089);
#2089=SURFACE_SIDE_STYLE('',(#2090));
#2090=SURFACE_STYLE_FILL_AREA(#2091);
#2091=FILL_AREA_STYLE('Steel - Satin',(#2092));
#2092=FILL_AREA_STYLE_COLOUR('Steel - Satin',#2093);
#2093=COLOUR_RGB('Steel - Satin',0.627450980392157,0.627450980392157,0.627450980392157);
ENDSEC;
END-ISO-10303-21;
